…
simulated_data
#> # A tibble: 338 × 2
#>    Riding Party         
#>     <int> <chr>         
#>  1      1 Other         
#>  2      2 Conservative  
#>  3      3 Green         
#>  4      4 Other         
#>  5      5 Bloc Québécois
#>  6      6 New Democratic
#>  7      7 Green         
#>  8      8 Liberal       
#>  9      9 Green         
#> 10     10 New Democratic
#> # … with 328 more rows
```
…
