…
australian_politicians
#> # A tibble: 1,783 × 10
#>    uniqueID   surname firstName gender birthDate  birthYear
#>    <chr>      <chr>   <chr>     <chr>  <date>         <dbl>
#>  1 Abbott1859 Abbott  Richard   male   NA              1859
#>  2 Abbott1869 Abbott  Percy     male   1869-05-14        NA
#>  3 Abbott1877 Abbott  Macartney male   1877-07-03        NA
#>  4 Abbott1886 Abbott  Charles   male   1886-01-04        NA
#>  5 Abbott1891 Abbott  Joseph    male   1891-10-18        NA
#>  6 Abbott1957 Abbott  Anthony   male   1957-11-04        NA
#>  7 Abel1939   Abel    John      male   1939-06-25        NA
#>  8 Abetz1958  Abetz   Eric      male   1958-01-25        NA
#>  9 Adams1943  Adams   Judith    female 1943-04-11        NA
#> 10 Adams1951  Adams   Dick      male   1951-04-29        NA
#> # … with 1,773 more rows, and 4 more variables:
#> #   deathDate <date>, member <dbl>, senator <dbl>,
#> #   wasPrimeMinister <dbl>
```

### `filter()`

We use `filter()` to pick particular rows of a dataset. For instance, we might like to filter to only politicians that became prime minister.


```r
australian_politicians |> 
  filter(wasPrimeMinister == 1)
#> # A tibble: 30 × 10
#>    uniqueID    surname firstName gender birthDate  birthYear
#>    <chr>       <chr>   <chr>     <chr>  <date>         <dbl>
#>  1 Abbott1957  Abbott  Anthony   male   1957-11-04        NA
#>  2 Barton1849  Barton  Edmund    male   1849-01-18        NA
#>  3 Bruce1883   Bruce   Stanley   male   1883-04-15        NA
#>  4 Chifley1885 Chifley Joseph    male   1885-09-22        NA
#>  5 Cook1860    Cook    Joseph    male   1860-12-07        NA
#>  6 Curtin1885  Curtin  John      male   1885-01-08        NA
#>  7 Deakin1856  Deakin  Alfred    male   1856-08-03        NA
#>  8 Fadden1894  Fadden  Arthur    male   1894-04-13        NA
#>  9 Fisher1862  Fisher  Andrew    male   1862-08-29        NA
#> 10 Forde1890   Forde   Francis   male   1890-07-18        NA
#> # … with 20 more rows, and 4 more variables:
#> #   deathDate <date>, member <dbl>, senator <dbl>,
#> #   wasPrimeMinister <dbl>
```
…
While this may seem somewhat esoteric, it is especially useful if we would like to remove a particular row using negation, or duplicate specific rows. For instance, we could remove the first row.


```r
australian_politicians |> 
  slice(-1)
#> # A tibble: 1,782 × 10
#>    uniqueID    surname firstName gender birthDate  birthYear
#>    <chr>       <chr>   <chr>     <chr>  <date>         <dbl>
#>  1 Abbott1869  Abbott  Percy     male   1869-05-14        NA
#>  2 Abbott1877  Abbott  Macartney male   1877-07-03        NA
#>  3 Abbott1886  Abbott  Charles   male   1886-01-04        NA
#>  4 Abbott1891  Abbott  Joseph    male   1891-10-18        NA
#>  5 Abbott1957  Abbott  Anthony   male   1957-11-04        NA
#>  6 Abel1939    Abel    John      male   1939-06-25        NA
#>  7 Abetz1958   Abetz   Eric      male   1958-01-25        NA
#>  8 Adams1943   Adams   Judith    female 1943-04-11        NA
#>  9 Adams1951   Adams   Dick      male   1951-04-29        NA
#> 10 Adamson1857 Adamson John      male   1857-02-18        NA
#> # … with 1,772 more rows, and 4 more variables:
#> #   deathDate <date>, member <dbl>, senator <dbl>,
#> #   wasPrimeMinister <dbl>
```
…
Finally, we could duplicate the first two rows.


```r
australian_politicians |> 
  slice(1:2, 1:n())
#> # A tibble: 1,785 × 10
#>    uniqueID   surname firstName gender birthDate  birthYear
#>    <chr>      <chr>   <chr>     <chr>  <date>         <dbl>
#>  1 Abbott1859 Abbott  Richard   male   NA              1859
#>  2 Abbott1869 Abbott  Percy     male   1869-05-14        NA
#>  3 Abbott1859 Abbott  Richard   male   NA              1859
#>  4 Abbott1869 Abbott  Percy     male   1869-05-14        NA
#>  5 Abbott1877 Abbott  Macartney male   1877-07-03        NA
#>  6 Abbott1886 Abbott  Charles   male   1886-01-04        NA
#>  7 Abbott1891 Abbott  Joseph    male   1891-10-18        NA
#>  8 Abbott1957 Abbott  Anthony   male   1957-11-04        NA
#>  9 Abel1939   Abel    John      male   1939-06-25        NA
#> 10 Abetz1958  Abetz   Eric      male   1958-01-25        NA
#> # … with 1,775 more rows, and 4 more variables:
#> #   deathDate <date>, member <dbl>, senator <dbl>,
#> #   wasPrimeMinister <dbl>
```




### `arrange()`

We use `arrange()` to change the order of the dataset based on the values of particular columns. For instance, could arrange 'australian_politicians' by their birthday.


```r
australian_politicians |> 
  arrange(birthDate)
#> # A tibble: 1,783 × 10
#>    uniqueID    surname firstName gender birthDate  birthYear
#>    <chr>       <chr>   <chr>     <chr>  <date>         <dbl>
#>  1 Braddon1829 Braddon Edward    male   1829-06-11        NA
#>  2 Ferguson18… Fergus… John      male   1830-03-15        NA
#>  3 Zeal1830    Zeal    William   male   1830-12-05        NA
#>  4 Fraser1832  Fraser  Simon     male   1832-08-21        NA
#>  5 Groom1833   Groom   William   male   1833-03-09        NA
#>  6 Sargood1834 Sargood Frederick male   1834-05-30        NA
#>  7 Fysh1835    Fysh    Philip    male   1835-03-01        NA
#>  8 Playford18… Playfo… Thomas    male   1837-11-26        NA
#>  9 Solomon1839 Solomon Elias     male   1839-09-02        NA
#> 10 McLean1840  McLean  Allan     male   1840-02-03        NA
#> # … with 1,773 more rows, and 4 more variables:
#> #   deathDate <date>, member <dbl>, senator <dbl>,
#> #   wasPrimeMinister <dbl>
```

We could modify `arrange()` with `desc()` to change from ascending to descending order.


```r
australian_politicians |> 
  arrange(desc(birthDate))
#> # A tibble: 1,783 × 10
#>    uniqueID   surname  firstName gender birthDate  birthYear
#>    <chr>      <chr>    <chr>     <chr>  <date>         <dbl>
#>  1 SteeleJoh… Steele-… Jordon    male   1994-10-14        NA
#>  2 Chandler1… Chandler Claire    female 1990-06-01        NA
#>  3 Roy1990    Roy      Wyatt     male   1990-05-22        NA
#>  4 Thompson1… Thompson Phillip   male   1988-05-07        NA
#>  5 Paterson1… Paterson James     male   1987-11-21        NA
#>  6 Burns1987  Burns    Joshua    male   1987-02-06        NA
#>  7 Smith1986  Smith    Marielle  female 1986-12-30        NA
#>  8 Kakoschke… Kakosch… Skye      female 1985-12-19        NA
#>  9 Simmonds1… Simmonds Julian    male   1985-08-29        NA
#> 10 Gorman1984 Gorman   Patrick   male   1984-12-12        NA
#> # … with 1,773 more rows, and 4 more variables:
#> #   deathDate <date>, member <dbl>, senator <dbl>,
#> #   wasPrimeMinister <dbl>
```

And we could arrange based on more than one column. For instance, if two politicians have the same first name, then we could arrange based on their birthday.


```r
australian_politicians |> 
  arrange(firstName, birthDate)
#> # A tibble: 1,783 × 10
#>    uniqueID    surname firstName gender birthDate  birthYear
#>    <chr>       <chr>   <chr>     <chr>  <date>         <dbl>
#>  1 Blain1894   Blain   Adair     male   1894-11-21        NA
#>  2 Dein1889    Dein    Adam      male   1889-03-04        NA
#>  3 Armstrong1… Armstr… Adam      male   1909-07-01        NA
#>  4 Bandt1972   Bandt   Adam      male   1972-03-11        NA
#>  5 Ridgeway19… Ridgew… Aden      male   1962-09-18        NA
#>  6 Bennett1933 Bennett Adrian    male   1933-01-21        NA
#>  7 Gibson1935  Gibson  Adrian    male   1935-11-03        NA
#>  8 Wynne1850   Wynne   Agar      male   1850-01-15        NA
#>  9 Robertson1… Robert… Agnes     female 1882-07-31        NA
#> 10 Pittard1902 Pittard Alan      male   1902-11-15        NA
#> # … with 1,773 more rows, and 4 more variables:
#> #   deathDate <date>, member <dbl>, senator <dbl>,
#> #   wasPrimeMinister <dbl>
```

We could achieve the same result with by using a pipe between two instances of `arrange()`.


```r
australian_politicians |> 
  arrange(birthDate) |> 
  arrange(firstName)
#> # A tibble: 1,783 × 10
#>    uniqueID    surname firstName gender birthDate  birthYear
#>    <chr>       <chr>   <chr>     <chr>  <date>         <dbl>
#>  1 Blain1894   Blain   Adair     male   1894-11-21        NA
#>  2 Dein1889    Dein    Adam      male   1889-03-04        NA
#>  3 Armstrong1… Armstr… Adam      male   1909-07-01        NA
#>  4 Bandt1972   Bandt   Adam      male   1972-03-11        NA
#>  5 Ridgeway19… Ridgew… Aden      male   1962-09-18        NA
#>  6 Bennett1933 Bennett Adrian    male   1933-01-21        NA
#>  7 Gibson1935  Gibson  Adrian    male   1935-11-03        NA
#>  8 Wynne1850   Wynne   Agar      male   1850-01-15        NA
#>  9 Robertson1… Robert… Agnes     female 1882-07-31        NA
#> 10 Pittard1902 Pittard Alan      male   1902-11-15        NA
#> # … with 1,773 more rows, and 4 more variables:
#> #   deathDate <date>, member <dbl>, senator <dbl>,
#> #   wasPrimeMinister <dbl>
```

When we use `arrange()` it is important to be clear about precedence. For instance, changing to birthday and then first name would give a different arrangement.


```r
australian_politicians |> 
  arrange(birthYear, firstName)
#> # A tibble: 1,783 × 10
#>    uniqueID    surname firstName gender birthDate birthYear
#>    <chr>       <chr>   <chr>     <chr>  <date>        <dbl>
#>  1 Edwards1842 Edwards Richard   male   NA             1842
#>  2 Sawers1844  Sawers  William   male   NA             1844
#>  3 Barker1846  Barker  Stephen   male   NA             1846
#>  4 Corser1852  Corser  Edward    male   NA             1852
#>  5 Lee1856     Lee     Henry     male   NA             1856
#>  6 Grant1857   Grant   John      male   NA             1857
#>  7 Palmer1859  Palmer  Albert    male   NA             1859
#>  8 Riley1859   Riley   Edward    male   NA             1859
#>  9 Abbott1859  Abbott  Richard   male   NA             1859
#> 10 Kennedy1860 Kennedy Thomas    male   NA             1860
#> # … with 1,773 more rows, and 4 more variables:
#> #   deathDate <date>, member <dbl>, senator <dbl>,
#> #   wasPrimeMinister <dbl>
```
…
### `mutate()`

We use `mutate()` when we want to make a new column. For instance, perhaps we want to make a new column that is 1 if a person was a member and a senator and 0 otherwise. That is to say that our new column would denote politicians that served in both the upper and the lower house.


```r
australian_politicians <- 
  australian_politicians |> 
  mutate(was_both = if_else(member == 1 & senator == 1, 1, 0))

australian_politicians |> 
  select(member, senator, was_both)
#> # A tibble: 1,783 × 3
#>    member senator was_both
#>     <dbl>   <dbl>    <dbl>
#>  1      0       1        0
#>  2      1       1        1
#>  3      0       1        0
#>  4      1       0        0
#>  5      1       0        0
#>  6      1       0        0
#>  7      1       0        0
#>  8      0       1        0
#>  9      0       1        0
#> 10      1       0        0
#> # … with 1,773 more rows
```

We can use `mutate()` for math, such as addition and subtraction. For instance, we could calculate the age that the politicians are (or would have been) in 2022.


```r
australian_politicians <- 
  australian_politicians |> 
  mutate(age = 2022 - lubridate::year(birthDate))

australian_politicians %>% 
  select(uniqueID, age)
#> # A tibble: 1,783 × 2
#>    uniqueID     age
#>    <chr>      <dbl>
#>  1 Abbott1859    NA
#>  2 Abbott1869   153
#>  3 Abbott1877   145
#>  4 Abbott1886   136
#>  5 Abbott1891   131
#>  6 Abbott1957    65
#>  7 Abel1939      83
#>  8 Abetz1958     64
#>  9 Adams1943     79
#> 10 Adams1951     71
#> # … with 1,773 more rows
```
…
Finally, we can also use `mutate()` in combination with `across()`, as we have in earlier examples, including the potential use of the 'selection helpers'. For instance, we could count the number of characters in both the first and last names at the same time.


```r
australian_politicians |> 
  mutate(across(c(firstName, surname), stringr::str_count)) %>% 
  select(uniqueID, firstName, surname)
#> # A tibble: 1,783 × 3
#>    uniqueID   firstName surname
#>    <chr>          <int>   <int>
#>  1 Abbott1859         7       6
#>  2 Abbott1869         5       6
#>  3 Abbott1877         9       6
#>  4 Abbott1886         7       6
#>  5 Abbott1891         6       6
#>  6 Abbott1957         7       6
#>  7 Abel1939           4       4
#>  8 Abetz1958          4       5
#>  9 Adams1943          6       5
#> 10 Adams1951          4       5
#> # … with 1,773 more rows
```
…
And there is a similarly helpful function for `mutate()`, which is `add_count()`. The difference is that the number will be added in a column.


```r
australian_politicians |> 
  group_by(gender) |> 
  add_count() %>% 
  select(uniqueID, gender, n)
#> # A tibble: 1,783 × 3
#> # Groups:   gender [2]
#>    uniqueID   gender     n
#>    <chr>      <chr>  <int>
#>  1 Abbott1859 male    1543
#>  2 Abbott1869 male    1543
#>  3 Abbott1877 male    1543
#>  4 Abbott1886 male    1543
#>  5 Abbott1891 male    1543
#>  6 Abbott1957 male    1543
#>  7 Abel1939   male    1543
#>  8 Abetz1958  male    1543
#>  9 Adams1943  female   240
#> 10 Adams1951  male    1543
#> # … with 1,773 more rows
```
…
