…
In this case we have many missing values in 'bound' and two in 'line'. For these known-unknowns, we are interested in whether the they are missing at random. We want to, ideally, show that data happened to just drop out. This is unlikely, and so we are usually trying to look at what is systematic about how our data are missing.

Sometime data happen to be duplicated. If we did not notice this then our analysis would be wrong in ways that we'd not be able to consistently expect. There are a variety of ways to look for duplicated rows, but `get_dupes()` from `janitor` [@janitor] is especially useful.


```r
get_dupes(all_2020_ttc_data)
#> No variable names specified - using all columns.
#> # A tibble: 37 x 11
#>    date                time   day    station code  min_delay
#>    <dttm>              <time> <chr>  <chr>   <chr>     <dbl>
#>  1 2020-02-10 00:00:00 06:00  Monday TORONT~ MRO           0
#>  2 2020-02-10 00:00:00 06:00  Monday TORONT~ MRO           0
#>  3 2020-02-10 00:00:00 06:00  Monday TORONT~ MUO           0
#>  4 2020-02-10 00:00:00 06:00  Monday TORONT~ MUO           0
#>  5 2020-03-10 00:00:00 23:00  Tuesd~ YORK M~ MUO           0
#>  6 2020-03-10 00:00:00 23:00  Tuesd~ YORK M~ MUO           0
#>  7 2020-03-26 00:00:00 13:20  Thurs~ VAUGHA~ MUNOA         3
#>  8 2020-03-26 00:00:00 13:20  Thurs~ VAUGHA~ MUNOA         3
#>  9 2020-03-26 00:00:00 18:32  Thurs~ VAUGHA~ MUNOA         3
#> 10 2020-03-26 00:00:00 18:32  Thurs~ VAUGHA~ MUNOA         3
#> # ... with 27 more rows, and 5 more variables:
#> #   min_gap <dbl>, bound <chr>, line <chr>, vehicle <dbl>,
#> #   dupe_count <int>
```
…
And so we can see that the 450 minute delay was due to 'Transit Control Related Problems', the 446 minute delay was due to 'Miscellaneous Other', they seem to be outliers, even among the outliers.


```r
all_2020_ttc_data |> 
  left_join(delay_codes |> 
              rename(code = sub_rmenu_code, code_desc = code_description_3) |>
              select(code, code_desc)) |> 
  arrange(-min_delay) |> 
  select(date, time, station, line, min_delay, code, code_desc)
#> Joining, by = c("code", "code_desc")
#> # A tibble: 14,335 x 7
#>    date                time   station  line  min_delay code 
#>    <dttm>              <time> <chr>    <chr>     <dbl> <chr>
#>  1 2020-02-13 00:00:00 05:30  ST GEOR~ YU          450 TUCC 
#>  2 2020-05-08 00:00:00 16:16  ST CLAI~ YU          446 MUO  
#>  3 2020-01-22 00:00:00 05:57  KEELE S~ BD          258 EUTR 
#>  4 2020-03-19 00:00:00 11:26  ROYAL Y~ BD          221 MUPR1
#>  5 2020-11-12 00:00:00 23:10  SHEPPAR~ YU          197 PUCSC
#>  6 2020-12-13 00:00:00 21:37  MCCOWAN~ SRT         167 PRSP 
#>  7 2020-12-04 00:00:00 16:23  MCCOWAN~ SRT         165 PRSP 
#>  8 2020-01-18 00:00:00 05:48  SCARBOR~ SRT         162 PRSL 
#>  9 2020-02-22 00:00:00 05:16  SPADINA~ YU          159 PUSWZ
#> 10 2020-09-03 00:00:00 14:35  CASTLE ~ BD          150 MUPR1
#> # ... with 14,325 more rows, and 1 more variable:
#> #   code_desc <chr>
```
…
We could also plot the factor loadings. We se some evidence that perhaps one is to do with the public, compared with another to do with the operator.


```r
df_out_r <- as_tibble(delay_pca$rotation)
df_out_r$feature <- colnames(dwide[,3:ncol(dwide)])

df_out_r
#> # A tibble: 30 x 31
#>         PC1    PC2      PC3      PC4      PC5     PC6
#>       <dbl>  <dbl>    <dbl>    <dbl>    <dbl>   <dbl>
#>  1 -0.0279  0.125  -0.0576   0.0679  -0.0133   0.0307
#>  2 -0.108   0.343  -0.150    0.205   -0.100    0.317 
#>  3 -0.0196  0.0604 -0.0207   0.0195   0.0189   0.0574
#>  4 -0.0244  0.0752 -0.0325  -0.0237   0.00121 -0.0263
#>  5 -0.0128  0.0113 -0.00340 -0.00977 -0.0255   0.0186
#>  6 -0.231   0.650  -0.309    0.245    0.222   -0.309 
#>  7 -0.0871  0.233  -0.0904  -0.692   -0.311   -0.414 
#>  8 -0.00377 0.0193 -0.00201 -0.0140  -0.0424   0.0751
#>  9 -0.0167  0.120  -0.0367  -0.578    0.336    0.563 
#> 10 -0.0708  0.276  -0.118    0.116   -0.368    0.435 
#> # ... with 20 more rows, and 25 more variables: PC7 <dbl>,
#> #   PC8 <dbl>, PC9 <dbl>, PC10 <dbl>, PC11 <dbl>,
#> #   PC12 <dbl>, PC13 <dbl>, PC14 <dbl>, PC15 <dbl>,
#> #   PC16 <dbl>, PC17 <dbl>, PC18 <dbl>, PC19 <dbl>,
#> #   PC20 <dbl>, PC21 <dbl>, PC22 <dbl>, PC23 <dbl>,
#> #   PC24 <dbl>, PC25 <dbl>, PC26 <dbl>, PC27 <dbl>,
#> #   PC28 <dbl>, PC29 <dbl>, PC30 <dbl>, feature <chr>
…
airbnb_data_selected
#> # A tibble: 18,265 x 21
#>    host_id host_since host_response_time host_is_superhost
#>      <dbl> <date>     <chr>              <lgl>            
#>  1    1565 2008-08-08 N/A                FALSE            
#>  2   22795 2009-06-22 N/A                FALSE            
#>  3   48239 2009-10-25 N/A                FALSE            
#>  4   93825 2010-03-15 N/A                FALSE            
#>  5  118124 2010-05-04 within a day       FALSE            
#>  6   22795 2009-06-22 N/A                FALSE            
#>  7  174063 2010-07-20 within an hour     TRUE             
#>  8  183071 2010-07-28 within an hour     TRUE             
#>  9  187320 2010-08-01 within a few hours TRUE             
#> 10  192364 2010-08-05 N/A                FALSE            
#> # ... with 18,255 more rows, and 17 more variables:
#> #   host_listings_count <dbl>,
#> #   host_total_listings_count <dbl>,
#> #   host_neighbourhood <chr>, neighbourhood_cleansed <chr>,
#> #   room_type <chr>, bathrooms <lgl>, bedrooms <dbl>,
#> #   price <chr>, number_of_reviews <dbl>,
#> #   has_availability <lgl>, review_scores_rating <dbl>, ...
```
First we might be interested in price. It is a character at the moment and so we need to convert it to a numeric. This is a common problem, and we need to be a little careful that it does not all just convert to NAs. In our case if we just force the price data to be a numeric then it will go to NA because there are a lot of characters where it is unclear what the numeric equivalent is, such as '$'. So we need to remove those characters first.


```r
airbnb_data_selected$price |> head()
#> [1] "$469.00" "$96.00"  "$64.00"  "$70.00"  "$45.00" 
#> [6] "$127.00"

airbnb_data_selected$price |> str_split("") |> unlist() |> unique()
#>  [1] "$" "4" "6" "9" "." "0" "7" "5" "1" "2" "3" "8" ","

airbnb_data_selected |> 
  select(price) |> 
  filter(str_detect(price, ","))
#> # A tibble: 145 x 1
#>    price    
#>    <chr>    
#>  1 $1,724.00
#>  2 $1,000.00
#>  3 $1,100.00
#>  4 $1,450.00
#>  5 $1,019.00
#>  6 $1,000.00
#>  7 $1,300.00
#>  8 $2,142.00
#>  9 $2,000.00
#> 10 $1,200.00
#> # ... with 135 more rows
…
