…
simulated_running_data <- 
  tibble(five_km_time = 
           runif(n = number_of_observations, 
                 min = 15, 
                 max = 30),
         noise = rnorm(number_of_observations, 0, 20),
         marathon_time = five_km_time * expected_relationship + noise
         ) |>
  mutate(five_km_time = round(five_km_time, digits = 1),
         marathon_time = round(marathon_time, digits = 1)) |>
  select(-noise)

simulated_running_data
#> # A tibble: 100 x 2
#>    five_km_time marathon_time
#>           <dbl>         <dbl>
#>  1         20.4          152.
#>  2         16.8          134.
#>  3         22.3          198.
#>  4         19.7          166.
#>  5         15.6          163.
#>  6         21.1          168.
#>  7         17            131.
#>  8         18.6          150.
#>  9         17.4          158.
#> 10         17.8          147.
#> # ... with 90 more rows
```
…
The intercept is the marathon time that we would expect with a five-kilometer time of 0 minutes. Hopefully this example illustrates the need to carefully interpret the intercept coefficient! The coefficient on five-kilometer run time shows how we expect the marathon time to change if the five-kilometer run time changed by one unit. In this case it is about 8.4, which makes sense seeing as a marathon is roughly that many times longer than a five-kilometer run.

We use `augment()` from `broom` [@broom] to add the fitted values and residuals to our original dataset. This allows us to plot the residuals (Figure \@ref(fig:fivekmvsmarathonresids)).


```r
library(broom)

simulated_running_data <- 
  augment(simulated_running_data_first_model,
          data = simulated_running_data)

simulated_running_data
#> # A tibble: 100 x 8
#>    five_km_time marathon_time .fitted .resid   .hat .sigma
#>           <dbl>         <dbl>   <dbl>  <dbl>  <dbl>  <dbl>
#>  1         20.4          152.    170. -17.8  0.0108   17.0
#>  2         16.8          134.    142.  -7.84 0.0232   17.0
#>  3         22.3          198.    185.  13.1  0.0103   17.0
#>  4         19.7          166.    165.   1.83 0.0121   17.1
#>  5         15.6          163.    132.  31.3  0.0307   16.7
#>  6         21.1          168.    176.  -8.09 0.0101   17.0
#>  7         17            131.    143. -11.8  0.0222   17.0
#>  8         18.6          150.    156.  -6.04 0.0152   17.0
#>  9         17.4          158.    146.  11.1  0.0201   17.0
#> 10         17.8          147.    150.  -2.68 0.0183   17.0
#> # ... with 90 more rows, and 2 more variables:
#> #   .cooksd <dbl>, .std.resid <dbl>
```
…
```r
simulated_running_data <-
  simulated_running_data |>
  mutate(was_raining = sample(
    c("Yes", "No"),
    size = number_of_observations,
    replace = TRUE,
    prob = c(0.2, 0.8)
  )) |> 
  select(five_km_time, marathon_time, was_raining)

simulated_running_data
#> # A tibble: 100 x 3
#>    five_km_time marathon_time was_raining
#>           <dbl>         <dbl> <chr>      
#>  1         20.4          152. No         
#>  2         16.8          134. No         
#>  3         22.3          198. No         
#>  4         19.7          166. No         
#>  5         15.6          163. No         
#>  6         21.1          168. No         
#>  7         17            131. No         
#>  8         18.6          150. No         
#>  9         17.4          158. No         
#> 10         17.8          147. No         
#> # ... with 90 more rows
```
…
In addition to wanting to include additional explanatory variables, we may think that they are related with each another. For instance, if we were wanting to explain the amount of snowfall, then we may be interested in the humidity and the temperature, but those two variables may also interact. We can do this by using `*` instead of `+` when we specify the model. When we interact variables in this way, then we almost always need to include the individual variables as well and `lm()` will do this by default.


```r
simulated_running_data <-
  simulated_running_data |>
  mutate(humidity = sample(
    c("High", "Low"),
    size = number_of_observations,
    replace = TRUE,
    prob = c(0.2, 0.8)
  ))

simulated_running_data
#> # A tibble: 100 x 4
#>    five_km_time marathon_time was_raining humidity
#>           <dbl>         <dbl> <chr>       <chr>   
#>  1         20.4          152. No          Low     
#>  2         16.8          134. No          Low     
#>  3         22.3          198. No          Low     
#>  4         19.7          166. No          Low     
#>  5         15.6          163. No          Low     
#>  6         21.1          168. No          Low     
#>  7         17            131. No          Low     
#>  8         18.6          150. No          Low     
#>  9         17.4          158. No          High    
#> 10         17.8          147. No          Low     
#> # ... with 90 more rows
```
…
simulated_running_data_split
#> <Analysis/Assess/Total>
#> <80/20/100>
```

Having split the data, we then create the training and test datasets.


```r
simulated_running_data_train <- training(simulated_running_data_split)

simulated_running_data_train
#> # A tibble: 80 x 4
#>    five_km_time marathon_time was_raining humidity
#>           <dbl>         <dbl> <chr>       <chr>   
#>  1         17.4          158. No          High    
#>  2         23.8          205. No          High    
#>  3         23.4          198. Yes         Low     
#>  4         22.3          175  No          Low     
#>  5         19.3          158  No          Low     
#>  6         24.4          204. No          High    
#>  7         17            120  No          High    
#>  8         19.1          178. No          Low     
#>  9         22.3          198. No          Low     
#> 10         20.6          166. No          Low     
#> # ... with 70 more rows
…
set.seed(853)

day_or_night <- 
  tibble(
    number_of_cars = runif(n = 1000, min = 0, 100),
    noise = rnorm(n = 1000, mean = 0, sd = 2),
    is_night = if_else(number_of_cars + noise > 50, 1, 0)
  ) |> 
  mutate(number_of_cars = round(number_of_cars)) |> 
  select(-noise)
  
day_or_night
#> # A tibble: 1,000 x 2
#>    number_of_cars is_night
#>             <dbl>    <dbl>
#>  1             36        0
#>  2             12        0
#>  3             48        0
#>  4             32        0
#>  5              4        0
#>  6             40        0
#>  7             13        0
#>  8             24        0
#>  9             16        0
#> 10             19        0
#> # ... with 990 more rows
```
…
One reason that logistic regression can be a bit tricky initially, is because the coefficients take a bit of work to interpret. In particular, our estimate on likelihood of it being night is 0.91 This is the odds. So, the odds that it is night, increase by 0.91 as the number of cars that we saw increases. We can translate the result into probabilities using `augment()` from `broom` [@broom] and this allows us to graph the results (Figure \@ref(fig:dayornightprobs)).


```r
library(broom)

day_or_night <-
  augment(day_or_night_model,
          data = day_or_night,
          type.predict = "response")

day_or_night
#> # A tibble: 1,000 x 8
#>    number_of_cars is_night  .fitted        .resid .std.resid
#>             <dbl>    <dbl>    <dbl>         <dbl>      <dbl>
#>  1             36        0 3.06e- 6 -0.00247        -2.47e-3
#>  2             12        0 2.22e-16 -0.0000000211   -2.11e-8
#>  3             48        0 1.48e- 1 -0.565          -5.71e-1
#>  4             32        0 7.95e- 8 -0.000399       -3.99e-4
#>  5              4        0 2.22e-16 -0.0000000211   -2.11e-8
#>  6             40        0 1.17e- 4 -0.0153         -1.53e-2
#>  7             13        0 2.22e-16 -0.0000000211   -2.11e-8
#>  8             24        0 5.39e-11 -0.0000104      -1.04e-5
#>  9             16        0 2.22e-16 -0.0000000211   -2.11e-8
#> 10             19        0 5.63e-13 -0.00000106     -1.06e-6
#> # ... with 990 more rows, and 3 more variables: .hat <dbl>,
#> #   .sigma <dbl>, .cooksd <dbl>
```
…
count_of_A_plus
#> # A tibble: 78 x 3
#>    department course  number_of_A_plus
#>    <chr>      <chr>              <int>
#>  1 1          DEP_1_a                9
#>  2 1          DEP_1_b               10
#>  3 1          DEP_1_c                1
#>  4 1          DEP_1_d                5
#>  5 1          DEP_1_e                2
#>  6 1          DEP_1_f                4
#>  7 1          DEP_1_g                3
#>  8 1          DEP_1_h                3
#>  9 1          DEP_1_i                1
#> 10 1          DEP_1_j                3
#> # ... with 68 more rows
```
…
