…
set.seed(853)

illustrative_sampling <-
  tibble(unit = 1:100,
         simple_random_sampling = 
           sample(
             x = c("Included", "Not included"),
             size = 100,
             replace = TRUE,
             prob = c(0.2, 0.8)
             ))

illustrative_sampling
#> # A tibble: 100 × 2
#>     unit simple_random_sampling
#>    <int> <chr>                 
#>  1     1 Not included          
#>  2     2 Not included          
#>  3     3 Not included          
#>  4     4 Not included          
#>  5     5 Not included          
#>  6     6 Not included          
#>  7     7 Not included          
#>  8     8 Not included          
#>  9     9 Not included          
#> 10    10 Not included          
#> # … with 90 more rows
```
…
starting_point <- sample(x = c(1:5), 
                         size = 1)

illustrative_sampling <-
  illustrative_sampling |>
  mutate(systematic_sampling = 
           if_else(row_number() %in% seq.int(from = starting_point, 
                                             to = 100, 
                                             by = 5), 
                   "Included", 
                   "Not included")
         )

illustrative_sampling
#> # A tibble: 100 × 3
#>     unit simple_random_sampling systematic_sampling
#>    <int> <chr>                  <chr>              
#>  1     1 Not included           Included           
#>  2     2 Not included           Not included       
#>  3     3 Not included           Not included       
#>  4     4 Not included           Not included       
#>  5     5 Not included           Not included       
#>  6     6 Not included           Included           
#>  7     7 Not included           Not included       
#>  8     8 Not included           Not included       
#>  9     9 Not included           Not included       
#> 10    10 Not included           Not included       
#> # … with 90 more rows
```
…
illustrative_sampling <-
  illustrative_sampling |>
  mutate(
    stratified_sampling = if_else(
      row_number() %in% selected_within_strata,
      "Included",
      "Not included"
    )
  )

illustrative_sampling
#> # A tibble: 100 × 4
#>     unit simple_random_sa… systematic_samp… stratified_samp…
#>    <int> <chr>             <chr>            <chr>           
#>  1     1 Not included      Included         Included        
#>  2     2 Not included      Not included     Not included    
#>  3     3 Not included      Not included     Not included    
#>  4     4 Not included      Not included     Not included    
#>  5     5 Not included      Not included     Not included    
#>  6     6 Not included      Included         Not included    
#>  7     7 Not included      Not included     Not included    
#>  8     8 Not included      Not included     Not included    
#>  9     9 Not included      Not included     Included        
#> 10    10 Not included      Not included     Not included    
#> # … with 90 more rows
```
…
illustrative_sampling <-
  illustrative_sampling |>
  mutate(cluster = (row_number() - 1) %/% 10, 
         cluster_sampling = if_else(
           cluster %in% selected_clusters,
           "Included",
           "Not included"
           )
         ) %>% 
  select(-cluster)

illustrative_sampling
#> # A tibble: 100 × 5
#>     unit simple_random_sa… systematic_samp… stratified_samp…
#>    <int> <chr>             <chr>            <chr>           
#>  1     1 Not included      Included         Included        
#>  2     2 Not included      Not included     Not included    
#>  3     3 Not included      Not included     Not included    
#>  4     4 Not included      Not included     Not included    
#>  5     5 Not included      Not included     Not included    
#>  6     6 Not included      Included         Not included    
#>  7     7 Not included      Not included     Not included    
#>  8     8 Not included      Not included     Not included    
#>  9     9 Not included      Not included     Included        
#> 10    10 Not included      Not included     Not included    
#> # … with 90 more rows, and 1 more variable:
#> #   cluster_sampling <chr>
```
…
In particular, a ratio estimator of some population parameter is the ratio of two means. For instance, we may have some information on the number of hours that a toddler sleeps overnight, $x$, and the number of hours their parents sleep overnight $y$ over a 30 day period.


```r
set.seed(853)

sleep <- 
  tibble(
    toddler_sleep = sample(x = c(2:14), size = 30, replace = TRUE),
    difference = sample(x = c(0:3), size = 30, replace = TRUE),
    parent_sleep = toddler_sleep - difference
  )

sleep
#> # A tibble: 30 × 3
#>    toddler_sleep difference parent_sleep
#>            <int>      <int>        <int>
#>  1            10          1            9
#>  2            11          0           11
#>  3            14          2           12
#>  4             2          2            0
#>  5             6          1            5
#>  6            14          2           12
#>  7             3          0            3
#>  8             5          2            3
#>  9             4          3            1
#> 10             4          1            3
#> # … with 20 more rows
```
…
```r
jane_eyre <- tibble(raw_text = third_example,
                    page_number = c(1:2))
```

We then want to separate the lines so that each line is an observation. We can do that by looking for '\\n' remembering that we need to escape the backslash as it is a special character.


```r
jane_eyre <- 
  separate_rows(jane_eyre, raw_text, sep = "\\n", convert = FALSE)
jane_eyre
#> # A tibble: 93 × 2
#>    raw_text                                      page_number
#>    <chr>                                               <int>
#>  1 "CHAPTER I"                                             1
#>  2 "There was no possibility of taking a walk t…           1
#>  3 "leafless shrubbery an hour in the morning; …           1
#>  4 "company, dined early) the cold winter wind …           1
#>  5 "penetrating, that further out-door exercise…           1
#>  6 ""                                                      1
#>  7 "I was glad of it: I never liked long walks,…           1
#>  8 "coming home in the raw twilight, with nippe…           1
#>  9 "chidings of Bessie, the nurse, and humbled …           1
#> 10 "Eliza, John, and Georgiana Reed."                      1
#> # … with 83 more rows
```
…
This is all looking fairly great. The only thing left is to clean up.


```r
dhs_2000 <- 
  dhs_2000 |> 
  select(state, TFR) |> 
  slice(13:69) |> 
  mutate(year = 2000)

dhs_2000
#> # A tibble: 57 × 3
#>    state                                         TFR    year
#>    <chr>                                         <chr> <dbl>
#>  1 "                                  State    … <NA>   2000
#>  2 "                                           … <NA>   2000
#>  3 "                                           … <NA>   2000
#>  4 ""                                            <NA>   2000
#>  5 ""                                            <NA>   2000
#>  6 "United States 1 "                            2,13…  2000
#>  7 ""                                            <NA>   2000
#>  8 "Alabama "                                    2,02…  2000
#>  9 "Alaska "                                     2,43…  2000
#> 10 "Arizona "                                    2,65…  2000
#> # … with 47 more rows
```
…
