…
```r
library(tidyverse)

set.seed(853)

simulated_tfr <- 
  tibble(
    state = state.name,
    population = runif(n = 50, min = 0, max = 50) |> round(digits = 2)
  )

simulated_tfr
#> # A tibble: 50 × 2
#>    state       population
#>    <chr>            <dbl>
#>  1 Alabama          18.0 
#>  2 Alaska            6.01
#>  3 Arizona          24.2 
#>  4 Arkansas         15.8 
#>  5 California        1.87
#>  6 Colorado         20.2 
#>  7 Connecticut       6.54
#>  8 Delaware         12.1 
#>  9 Florida           7.9 
#> 10 Georgia           9.44
#> # … with 40 more rows
```
…
We now have a function that does what we need to each page of the PDF. We will use `map_dfr()` from `purrr` [@citepurrr] to apply that function to each page, and then combine all the outputs into one tibble.


```r
# Run through each relevant page and get the data
pages <- c(30:513)
all_tables <- map_dfr(pages, get_data)
rm(pages, get_data)
```


```r
all_tables
#> # A tibble: 59,532 × 7
#>    age   male    female  total     area    table        page
#>    <chr> <chr>   <chr>   <chr>     <chr>   <chr>       <int>
#>  1 Total 610,257 598,046 1,208,303 Mombasa Table 2.3:…    30
#>  2 0     15,111  15,009  30,120    Mombasa Table 2.3:…    30
#>  3 1     15,805  15,308  31,113    Mombasa Table 2.3:…    30
#>  4 2     15,088  14,837  29,925    Mombasa Table 2.3:…    30
#>  5 3     14,660  14,031  28,691    Mombasa Table 2.3:…    30
#>  6 4     14,061  13,993  28,054    Mombasa Table 2.3:…    30
#>  7 0-4   74,725  73,178  147,903   Mombasa Table 2.3:…    30
#>  8 5     13,851  14,023  27,874    Mombasa Table 2.3:…    30
#>  9 6     12,889  13,216  26,105    Mombasa Table 2.3:…    30
#> 10 7     13,268  13,203  26,471    Mombasa Table 2.3:…    30
#> # … with 59,522 more rows
```
…
While we could use `janitor` here, it is worthwhile at least first looking at what is going on because sometimes there is odd stuff that `janitor` (and other packages) will deal with, but not in a way that we want. In this case, the Kenyan government used Excel or similar, and this has converted two entries into dates. If we just took the numbers from the column then we would have 23 and 15 here, but by inspecting the column we can use Excel to reverse the process and enter the correct values of 4,923 and 4,611, respectively.

Having identified everything that needs to be removed, we can do the actual removal and convert our character column of numbers to integers.


```r
all_tables <-
  all_tables |>
  mutate_at(vars(male, female, total), ~str_remove_all(., ",")) |>
  mutate_at(vars(male, female, total), ~str_replace(., "_", "0")) |>
  mutate_at(vars(male, female, total), ~str_replace(., "-", "0")) |>
  mutate_at(vars(male, female, total), ~as.integer(.))

all_tables
#> # A tibble: 59,532 × 7
#>    age     male female   total area    table            page
#>    <chr>  <int>  <int>   <int> <chr>   <chr>           <int>
#>  1 Total 610257 598046 1208303 Mombasa Table 2.3: Dis…    30
#>  2 0      15111  15009   30120 Mombasa Table 2.3: Dis…    30
#>  3 1      15805  15308   31113 Mombasa Table 2.3: Dis…    30
#>  4 2      15088  14837   29925 Mombasa Table 2.3: Dis…    30
#>  5 3      14660  14031   28691 Mombasa Table 2.3: Dis…    30
#>  6 4      14061  13993   28054 Mombasa Table 2.3: Dis…    30
#>  7 0-4    74725  73178  147903 Mombasa Table 2.3: Dis…    30
#>  8 5      13851  14023   27874 Mombasa Table 2.3: Dis…    30
#>  9 6      12889  13216   26105 Mombasa Table 2.3: Dis…    30
#> 10 7      13268  13203   26471 Mombasa Table 2.3: Dis…    30
#> # … with 59,522 more rows
```
…
```r
list_counties <- 
  all_tables |> 
  filter(table %in% c("Table 2.4a: Distribution of Rural Population by Age, Sex* and County",
                      "Table 2.4b: Distribution of Urban Population by Age, Sex* and County")
         ) |> 
  select(area) |> 
  distinct()

list_counties
#> # A tibble: 47 × 1
#>    area        
#>    <chr>       
#>  1 Kwale       
#>  2 Kilifi      
#>  3 Tana River  
#>  4 Lamu        
#>  5 Taita/Taveta
#>  6 Garissa     
#>  7 Wajir       
#>  8 Mandera     
#>  9 Marsabit    
#> 10 Isiolo      
#> # … with 37 more rows
```
…
                     "Garissa",
                     "Homa Bay",
                     "Isiolo",
                     "Kiambu",
                     "Machakos",
                     "Makueni",
                     "Samburu",
                     "Siaya",
                     "Tana River",
                     "Vihiga",
                     "West Pokot")
         ) |> 
  select(area, page) |> 
  distinct()
#> # A tibble: 24 × 2
#>    area        page
#>    <chr>      <int>
#>  1 Samburu       42
#>  2 Tana River    53
#>  3 Tana River    56
#>  4 Garissa       65
#>  5 Garissa       69
#>  6 Isiolo        98
#>  7 Isiolo       100
#>  8 Machakos     149
#>  9 Machakos     154
#> 10 Makueni      159
#> # … with 14 more rows
```
…
rm(list_counties)

all_tables
#> # A tibble: 59,532 × 8
#>    age     male female   total area    table  page area_type
#>    <chr>  <int>  <int>   <int> <chr>   <chr> <int> <chr>    
#>  1 Total 610257 598046 1208303 Mombasa Tabl…    30 county   
#>  2 0      15111  15009   30120 Mombasa Tabl…    30 county   
#>  3 1      15805  15308   31113 Mombasa Tabl…    30 county   
#>  4 2      15088  14837   29925 Mombasa Tabl…    30 county   
#>  5 3      14660  14031   28691 Mombasa Tabl…    30 county   
#>  6 4      14061  13993   28054 Mombasa Tabl…    30 county   
#>  7 0-4    74725  73178  147903 Mombasa Tabl…    30 county   
#>  8 5      13851  14023   27874 Mombasa Tabl…    30 county   
#>  9 6      12889  13216   26105 Mombasa Tabl…    30 county   
#> 10 7      13268  13203   26471 Mombasa Tabl…    30 county   
#> # … with 59,522 more rows
```
…
