…
The first step is to make the numbers into actual numbers, rather than characters. Before I can convert the type I need to remove anything that is not a number otherwise it'll be converted into an NA. I first identify any values that are not numbers so that I can remove them. 


```r
# Need to convert male, female, and total to integers
# First find the characters that should not be in there
all_tables %>% 
  select(male, female, total) %>%
  mutate_all(~str_remove_all(., "[:digit:]")) %>% 
  mutate_all(~str_remove_all(., ",")) %>%
  mutate_all(~str_remove_all(., "_")) %>%
  mutate_all(~str_remove_all(., "-")) %>% 
  distinct()
#> # A tibble: 39 × 3
#>    male    female         total  
#>    <chr>   <chr>          <chr>  
#>  1  <NA>    <NA>           <NA>  
#>  2 ".:"    "Distribution" "of"   
#>  3 "Male"  "Female"       "Total"
#>  4 ""      ""             ""     
#>  5 "by"    "Age"          "Sex*" 
#>  6 "LUNGA"  <NA>           <NA>  
#>  7 "NORTH"  <NA>           <NA>  
#>  8 "SOUTH"  <NA>           <NA>  
#>  9 "RIVER"  <NA>           <NA>  
#> 10 "DELTA"  <NA>           <NA>  
#> # … with 29 more rows
…
