…
### Gather the data

To begin with, use `opendatatoronto::list_packages()` to look at some of the datasets that available. 



```r
all_data <- opendatatoronto::list_packages(limit = 500)
all_data
#> # A tibble: 425 × 11
#>    title         id    topics civic_issues publisher excerpt
#>    <chr>         <chr> <chr>  <chr>        <chr>     <chr>  
#>  1 EarlyON Chil… 2619… Commu… Poverty red… Children… "Early…
#>  2 Short Term R… 2ab2… Permi… Affordable … Municipa… "This …
#>  3 Polls conduc… 7bce… City … <NA>         City Cle… "Polls…
#>  4 COVID-19 Imm… d3f2… Health <NA>         Toronto … "This …
#>  5 COVID-19 Tes… cd61… Health <NA>         Toronto … "This …
#>  6 Rain Gauge L… f293… Locat… Climate cha… Toronto … "This …
#>  7 Street Furni… 99b1… City … <NA>         Transpor… "Infor…
#>  8 Automated Sp… a154… Trans… Mobility     Transpor… "This …
#>  9 BodySafe      c405… City … <NA>         Toronto … "This …
#> 10 Street Furni… 1db3… City … Mobility     Transpor… "Trans…
#> # … with 415 more rows, and 5 more variables:
#> #   dataset_category <chr>, num_resources <int>,
#> #   formats <chr>, refresh_rate <chr>,
#> #   last_refreshed <date>
```
…
<img src="40-eda_files/figure-html/unnamed-chunk-10-2.png" width="672" />

For these known-unknowns, what we are interested in is whether the they are missing at random. We want to, ideally, show that data happened to just drop out. Of course, this is unlikely the case, and so we are looking to see what is systematic about how our data are missing.


### Duplicate rows

Sometime data happen to be duplicated. If we didn't notice this then our analysis would be wrong in ways that we'd not be able to consistently expect. There are a variety of ways to look for duplicated rows, but the `janitor::get_dupes()` function from the `janitor` package [@janitor] is especially useful.


```r
janitor::get_dupes(delay_2019)
#> No variable names specified - using all columns.
#> # A tibble: 158 × 11
#>    date                time  day     station code  min_delay
#>    <dttm>              <chr> <chr>   <chr>   <chr>     <dbl>
#>  1 2019-01-01 00:00:00 08:18 Tuesday DONLAN… MUESA         5
#>  2 2019-01-01 00:00:00 08:18 Tuesday DONLAN… MUESA         5
#>  3 2019-02-01 00:00:00 05:51 Friday  SCARB … MRTO         10
#>  4 2019-02-01 00:00:00 05:51 Friday  SCARB … MRTO         10
#>  5 2019-02-01 00:00:00 06:45 Friday  MIDLAN… MRWEA         3
#>  6 2019-02-01 00:00:00 06:45 Friday  MIDLAN… MRWEA         3
#>  7 2019-02-01 00:00:00 06:55 Friday  LAWREN… ERDO          0
#>  8 2019-02-01 00:00:00 06:55 Friday  LAWREN… ERDO          0
#>  9 2019-02-01 00:00:00 07:16 Friday  MCCOWA… MRWEA         5
#> 10 2019-02-01 00:00:00 07:16 Friday  MCCOWA… MRWEA         5
#> # … with 148 more rows, and 5 more variables:
#> #   min_gap <dbl>, bound <chr>, line <chr>, vehicle <dbl>,
#> #   dupe_count <int>
```
…
And so we can see that the 455 minute delay was due to 'Rail Related Problem' and seems to very much be an outlier.


```r
delay_2019 %>% 
  left_join(delay_codes %>% 
              rename(code = `SUB RMENU CODE`, code_desc = `CODE DESCRIPTION...3`) %>%
              select(code, code_desc)) %>% 
  arrange(-min_delay) %>% 
  select(date, time, station, line, min_delay, code, code_desc)
#> Joining, by = c("code", "code_desc")
#> # A tibble: 18,697 × 7
#>    date                time  station   line  min_delay code 
#>    <dttm>              <chr> <chr>     <chr>     <dbl> <chr>
#>  1 2019-06-25 00:00:00 18:48 WILSON T… YU          455 PUTR 
#>  2 2019-02-12 00:00:00 20:28 LAWRENCE… SRT         284 MRWEA
#>  3 2019-06-05 00:00:00 12:42 UNION TO… YU          250 MUPLA
#>  4 2019-10-22 00:00:00 14:22 LAWRENCE… YU          228 PUTS 
#>  5 2019-09-26 00:00:00 11:38 YORK MIL… YU          193 MUPR1
#>  6 2019-06-08 00:00:00 08:51 SPADINA … BD          180 MUPLB
#>  7 2019-12-02 00:00:00 06:59 DUNDAS W… BD          176 MUPLB
#>  8 2019-01-29 00:00:00 05:46 VICTORIA… BD          174 MUWEA
#>  9 2019-02-22 00:00:00 17:32 ELLESMER… SRT         168 PRW  
#> 10 2019-02-10 00:00:00 07:53 BAYVIEW … SHP         165 PUSI 
#> # … with 18,687 more rows, and 1 more variable:
#> #   code_desc <chr>
```
…
<img src="40-eda_files/figure-html/unnamed-chunk-29-1.png" width="672" />

We could also plot the factor loadings. We se some evidence that perhaps one is to do with the public, compared with another to do with the operator.


```r
df_out_r <- as_tibble(delay_pca$rotation)
df_out_r$feature <- colnames(dwide[,3:ncol(dwide)])

df_out_r
#> # A tibble: 38 × 39
#>         PC1      PC2        PC3       PC4      PC5      PC6
#>       <dbl>    <dbl>      <dbl>     <dbl>    <dbl>    <dbl>
#>  1 -0.0412   0.0638   0.0133    -0.0467    0.0246   0.0184 
#>  2 -0.0332  -0.00469 -0.0414    -0.00751   0.0201  -0.0122 
#>  3 -0.135    0.207    0.0237    -0.144     0.135   -0.0381 
#>  4 -0.0652   0.0475  -0.0443    -0.0251   -0.00139 -0.0748 
#>  5 -0.00443  0.00878 -0.0000499 -0.000830  0.00967  0.00954
#>  6 -0.0268  -0.00722 -0.00439    0.000534 -0.0151  -0.0125 
#>  7 -0.0813   0.0960  -0.0462     0.0479   -0.0978  -0.0365 
#>  8 -0.0117   0.0135   0.00548   -0.0294    0.0125   0.0377 
#>  9 -0.516    0.655   -0.0177    -0.162    -0.221   -0.287  
#> 10 -0.151    0.0826   0.0548     0.352    -0.397    0.281  
#> # … with 28 more rows, and 33 more variables: PC7 <dbl>,
#> #   PC8 <dbl>, PC9 <dbl>, PC10 <dbl>, PC11 <dbl>,
#> #   PC12 <dbl>, PC13 <dbl>, PC14 <dbl>, PC15 <dbl>,
#> #   PC16 <dbl>, PC17 <dbl>, PC18 <dbl>, PC19 <dbl>,
#> #   PC20 <dbl>, PC21 <dbl>, PC22 <dbl>, PC23 <dbl>,
#> #   PC24 <dbl>, PC25 <dbl>, PC26 <dbl>, PC27 <dbl>,
#> #   PC28 <dbl>, PC29 <dbl>, PC30 <dbl>, PC31 <dbl>, …
…
```r
# Get the data
casino_resource <- 
  search_packages("casino survey")%>%
  list_package_resources() %>%
  filter(name == "toronto-casino-survey-results") %>%
  get_resource()
#> New names:
#> * `` -> ...93
#> * `` -> ...94
head(casino_resource)
#> $tblSurvey
#> # A tibble: 17,766 × 94
#>    SurveyID Q1_A   Q1_B1 Q1_B2 Q1_B3 Q2_A  Q2_B  Q3_A  Q3_B 
#>       <dbl> <chr>  <chr> <chr> <chr> <chr> <chr> <chr> <chr>
#>  1        1 Stron… Do n… Do n… Do n… Does… "As … Not … Very…
#>  2        2 Stron… Econ… Jobs  Arts… Fits… "Cos… Very… Very…
#>  3        3 Stron… Ther… If t… <NA>  Fits… "Big… Very… Very…
#>  4        4 Somew… beli… mone… evid… Does… "My … Very… Very…
#>  5        5 Neutr… Like… Conc… <NA>  Neut… "Aga… Very… Very…
#>  6        6 Stron… have… <NA>  <NA>  Does… "Tor… Not … Not …
#>  7        7 Stron… The … Peop… We s… Does… "#3 … Not … Not …
#>  8        8 Stron… It w… Mora… <NA>  Does… "Cas… Very… Very…
#>  9        9 Stron… It's… traf… heal… Does… "No … Not … Very…
#> 10       10 Stron… Toro… Avoi… Prov… Fits… "Tor… Very… Very…
#> # … with 17,756 more rows, and 85 more variables:
#> #   Q3_C <chr>, Q3_D <chr>, Q3_E <chr>, Q3_F <chr>,
#> #   Q3_G <chr>, Q3_H <chr>, Q3_I <chr>, Q3_J <chr>,
#> #   Q3_K <chr>, Q3_L <chr>, Q3_M <chr>, Q3_N <chr>,
#> #   Q3_O <chr>, Q3_P <chr>, Q3_Q <chr>, Q3_Q_Other <chr>,
#> #   Q3_Comments <chr>, Q4_A <chr>, Q5 <chr>, Q6 <chr>,
#> #   Q6_Comments <chr>, Q7_A_StandAlone <chr>, …
…
```r
# Check what kind of object the casino_resource object is
class(casino_resource)
#> [1] "list"
```

If we just return the object, we can see that the second list item is empty, and we just want to keep the first one:


```r
casino_resource
#> $tblSurvey
#> # A tibble: 17,766 × 94
#>    SurveyID Q1_A   Q1_B1 Q1_B2 Q1_B3 Q2_A  Q2_B  Q3_A  Q3_B 
#>       <dbl> <chr>  <chr> <chr> <chr> <chr> <chr> <chr> <chr>
#>  1        1 Stron… Do n… Do n… Do n… Does… "As … Not … Very…
#>  2        2 Stron… Econ… Jobs  Arts… Fits… "Cos… Very… Very…
#>  3        3 Stron… Ther… If t… <NA>  Fits… "Big… Very… Very…
#>  4        4 Somew… beli… mone… evid… Does… "My … Very… Very…
#>  5        5 Neutr… Like… Conc… <NA>  Neut… "Aga… Very… Very…
#>  6        6 Stron… have… <NA>  <NA>  Does… "Tor… Not … Not …
#>  7        7 Stron… The … Peop… We s… Does… "#3 … Not … Not …
#>  8        8 Stron… It w… Mora… <NA>  Does… "Cas… Very… Very…
#>  9        9 Stron… It's… traf… heal… Does… "No … Not … Very…
#> 10       10 Stron… Toro… Avoi… Prov… Fits… "Tor… Very… Very…
#> # … with 17,756 more rows, and 85 more variables:
#> #   Q3_C <chr>, Q3_D <chr>, Q3_E <chr>, Q3_F <chr>,
#> #   Q3_G <chr>, Q3_H <chr>, Q3_I <chr>, Q3_J <chr>,
#> #   Q3_K <chr>, Q3_L <chr>, Q3_M <chr>, Q3_N <chr>,
#> #   Q3_O <chr>, Q3_P <chr>, Q3_Q <chr>, Q3_Q_Other <chr>,
#> #   Q3_Comments <chr>, Q4_A <chr>, Q5 <chr>, Q6 <chr>,
#> #   Q6_Comments <chr>, Q7_A_StandAlone <chr>, …
…
```r
airbnb_data_selected$price %>% head()
#> [1] "$469.00" "$96.00"  "$64.00"  "$70.00"  "$45.00" 
#> [6] "$127.00"

# First work out what is going on
airbnb_data_selected$price %>% str_split("") %>% unlist() %>% unique()
#>  [1] "$" "4" "6" "9" "." "0" "7" "5" "1" "2" "3" "8" ","
# It's clear that '$' needs to go. The only odd thing is ',' so take a look at those:
airbnb_data_selected %>% 
  select(price) %>% 
  filter(str_detect(price, ","))
#> # A tibble: 145 × 1
#>    price    
#>    <chr>    
#>  1 $1,724.00
#>  2 $1,000.00
#>  3 $1,100.00
#>  4 $1,450.00
#>  5 $1,019.00
#>  6 $1,000.00
#>  7 $1,300.00
#>  8 $2,142.00
#>  9 $2,000.00
#> 10 $1,200.00
#> # … with 135 more rows
…
TODO: I don't understand how these review scores are being constructed. Airbnb says it's a star rating, but how are they converting this into the 10 point scale, similarly, how are their constructing the overall one, which seems to be out of 100? There's a lot of clumping around 20, 40, 60, 80, 100 - could they be averaging a five-star scale and then rebasing it to 100?

Now we'll deal with the NAs in `review_scores_rating`. This one is more complicated as there are a lot of them.


```r
airbnb_data_selected %>%
  filter(is.na(review_scores_rating))
#> # A tibble: 4,368 × 22
#>    host_id host_since host_response_time host_is_superhost
#>      <dbl> <date>     <chr>              <lgl>            
#>  1   48239 2009-10-25 N/A                FALSE            
#>  2  187320 2010-08-01 within a few hours TRUE             
#>  3  188183 2010-08-01 a few days or more FALSE            
#>  4  187320 2010-08-01 within a few hours TRUE             
#>  5  304551 2010-11-29 within an hour     TRUE             
#>  6  545074 2011-04-29 N/A                FALSE            
#>  7 1210571 2011-09-26 N/A                FALSE            
#>  8 1411076 2011-11-15 N/A                FALSE            
#>  9 1409872 2011-11-15 N/A                FALSE            
#> 10 1664812 2012-01-28 N/A                FALSE            
#> # … with 4,358 more rows, and 18 more variables:
#> #   host_listings_count <dbl>,
#> #   host_total_listings_count <dbl>,
#> #   host_neighbourhood <chr>, neighbourhood_cleansed <chr>,
#> #   room_type <chr>, bathrooms <lgl>, bedrooms <dbl>,
#> #   price <int>, number_of_reviews <dbl>,
#> #   has_availability <lgl>, review_scores_rating <dbl>, …
```
…
<img src="40-eda_files/figure-html/unnamed-chunk-74-1.png" width="672" />

There seem to be an awful lot that have an overall review of 100. There are also an awful lot that have a review score of NA.


```r
airbnb_data_selected %>% 
  filter(is.na(host_response_time)) %>%
  filter(is.na(review_scores_rating))
#> # A tibble: 2,590 × 22
#>    host_id host_since host_response_time host_is_superhost
#>      <dbl> <date>     <chr>              <lgl>            
#>  1   48239 2009-10-25 <NA>               FALSE            
#>  2  545074 2011-04-29 <NA>               FALSE            
#>  3 1210571 2011-09-26 <NA>               FALSE            
#>  4 1411076 2011-11-15 <NA>               FALSE            
#>  5 1409872 2011-11-15 <NA>               FALSE            
#>  6 1664812 2012-01-28 <NA>               FALSE            
#>  7 1828773 2012-02-28 <NA>               FALSE            
#>  8 1923052 2012-03-14 <NA>               FALSE            
#>  9 2432916 2012-05-22 <NA>               FALSE            
#> 10 2577688 2012-06-07 <NA>               FALSE            
#> # … with 2,580 more rows, and 18 more variables:
#> #   host_listings_count <dbl>,
#> #   host_total_listings_count <dbl>,
#> #   host_neighbourhood <chr>, neighbourhood_cleansed <chr>,
#> #   room_type <chr>, bathrooms <lgl>, bedrooms <dbl>,
#> #   price <int>, number_of_reviews <dbl>,
#> #   has_availability <lgl>, review_scores_rating <dbl>, …
```
…
There are none in this dataset so we can just remove one column for now and have a quick look at the other one.



```r
airbnb_data_selected <- 
  airbnb_data_selected %>% 
  select(-host_listings_count)

airbnb_data_selected %>% 
  count(host_total_listings_count)
#> # A tibble: 49 × 2
#>    host_total_listings_count     n
#>                        <dbl> <int>
#>  1                         0  2128
#>  2                         1  7662
#>  3                         2  2476
#>  4                         3  1384
#>  5                         4   802
#>  6                         5   478
#>  7                         6   385
#>  8                         7   270
#>  9                         8   291
#> 10                         9   170
#> # … with 39 more rows
```
…
