…
department_two <-
  tibble(
    undergrad = runif(n = number_in_each, min = 0.6, max = 0.8),
    noise = rnorm(n = number_in_each, 0, sd = 0.1),
    grad = undergrad + noise + 0.3,
    type = "Department 2"
  )

both_departments <- rbind(department_one, department_two)

both_departments
#> # A tibble: 2,000 × 4
#>    undergrad   noise  grad type        
#>        <dbl>   <dbl> <dbl> <chr>       
#>  1     0.772 -0.0566 0.715 Department 1
#>  2     0.724 -0.0312 0.693 Department 1
#>  3     0.797  0.0770 0.874 Department 1
#>  4     0.763 -0.0664 0.697 Department 1
#>  5     0.707  0.0717 0.779 Department 1
#>  6     0.781 -0.0165 0.764 Department 1
#>  7     0.726 -0.104  0.623 Department 1
#>  8     0.749  0.0527 0.801 Department 1
#>  9     0.732 -0.0471 0.684 Department 1
#> 10     0.738  0.0552 0.793 Department 1
#> # … with 1,990 more rows
```
…
general_public <-
  tibble(
    VO2 = runif(n = number_of_public, min = 0.6, max = 0.8),
    noise = rnorm(n = number_of_public, 0, sd = 0.03),
    chance_of_winning = VO2 + noise + 0.1,
    type = "Public"
  ) |>
  select(-noise)

professionals_and_public = rbind(professionals, general_public)

professionals_and_public
#> # A tibble: 1,100 × 3
#>      VO2 chance_of_winning type         
#>    <dbl>             <dbl> <chr>        
#>  1 0.772             0.734 Professionals
#>  2 0.724             0.773 Professionals
#>  3 0.797             0.772 Professionals
#>  4 0.763             0.754 Professionals
#>  5 0.707             0.843 Professionals
#>  6 0.781             0.740 Professionals
#>  7 0.726             0.803 Professionals
#>  8 0.749             0.750 Professionals
#>  9 0.732             0.890 Professionals
#> 10 0.738             0.821 Professionals
#> # … with 1,090 more rows
```
…
simulated_difference_in_differences <-
  simulated_difference_in_differences |>
  rowwise() |>
  mutate(
    serve_speed = case_when(
      time == 0 & treatment_group == 0 ~ rnorm(n = 1, mean = 5, sd = 1),
      time == 1 & treatment_group == 0 ~ rnorm(n = 1, mean = 6, sd = 1),
      time == 0 & treatment_group == 1 ~ rnorm(n = 1, mean = 8, sd = 1),
      time == 1 & treatment_group == 1 ~ rnorm(n = 1, mean = 14, sd = 1)
    )
  )

simulated_difference_in_differences
#> # A tibble: 2,000 × 4
#> # Rowwise: 
#>    person time  treatment_group serve_speed
#>     <int> <fct> <fct>                 <dbl>
#>  1      1 0     0                      4.43
#>  2      2 0     1                      6.96
#>  3      3 0     1                      7.77
#>  4      4 0     0                      5.31
#>  5      5 0     0                      4.09
#>  6      6 0     0                      4.85
#>  7      7 0     0                      6.43
#>  8      8 0     0                      5.77
#>  9      9 0     1                      6.13
#> 10     10 0     1                      7.32
#> # … with 1,990 more rows
```
…
```r
library(haven)

newspapers <- read_dta("Angelucci_Cage_AEJMicro_dataset.dta")

newspapers
```





```r
newspapers
#> # A tibble: 1,196 × 52
#>     year id_news local national after_national   Had po_cst
#>    <dbl>   <dbl> <dbl>    <dbl>          <dbl> <dbl>  <dbl>
#>  1  1960       1     1        0              0     0   2.60
#>  2  1961       1     1        0              0     0   2.51
#>  3  1962       1     1        0              0     0   2.39
#>  4  1963       1     1        0              0     0   2.74
#>  5  1964       1     1        0              0     0   2.65
#>  6  1965       1     1        0              0     0   2.59
#>  7  1966       1     1        0              0     0   2.52
#>  8  1967       1     1        0              0     0   3.27
#>  9  1968       1     1        0              0     0   3.91
#> 10  1969       1     1        0              0     0   3.67
#> # … with 1,186 more rows, and 45 more variables:
#> #   ps_cst <dbl>, etotal_cst <dbl>, ra_cst <dbl>,
#> #   ra_s <dbl>, rs_cst <dbl>, rtotal_cst <dbl>,
#> #   profit_cst <dbl>, nb_journ <dbl>, qs_s <dbl>,
#> #   qtotal <dbl>, pages <dbl>, ads_q <dbl>, ads_s <dbl>,
#> #   news_hole <dbl>, share_Hard <dbl>, ads_p4_cst <dbl>,
#> #   R_sh_edu_primaire_ipo <dbl>, …
```
…
