…
simulated_difference_in_differences <-
  simulated_difference_in_differences |>
  rowwise() |>
  mutate(
    serve_speed = case_when(
      time == 0 & treatment_group == 0 ~ rnorm(n = 1, mean = 5, sd = 1),
      time == 1 & treatment_group == 0 ~ rnorm(n = 1, mean = 6, sd = 1),
      time == 0 & treatment_group == 1 ~ rnorm(n = 1, mean = 8, sd = 1),
      time == 1 & treatment_group == 1 ~ rnorm(n = 1, mean = 14, sd = 1)
    )
  )

simulated_difference_in_differences
#> # A tibble: 2,000 × 4
#> # Rowwise: 
#>    person time  treatment_group serve_speed
#>     <int> <fct> <fct>                 <dbl>
#>  1      1 0     0                      4.43
#>  2      2 0     1                      6.96
#>  3      3 0     1                      7.77
#>  4      4 0     0                      5.31
#>  5      5 0     0                      4.09
#>  6      6 0     0                      4.85
#>  7      7 0     0                      6.43
#>  8      8 0     0                      5.77
#>  9      9 0     1                      6.13
#> 10     10 0     1                      7.32
#> # … with 1,990 more rows
```
…
