…
## TF-IDF

Inspired by @sharlasephora and following @thenakedtruth, we will draw on the dataset they put together of makeup names and descriptions from Sephora and Ulta. We are interested in the counts of each word. We can read in the data using `read_csv()`.


```r
library(tidyverse)

makeup <-
  read_csv(file = 
             "https://raw.githubusercontent.com/the-pudding/data/master/foundation-names/allNumbers.csv")

makeup
#> # A tibble: 3,117 × 9
#>    brand  product name  specific lightness hex   lightToDark
#>    <chr>  <chr>   <chr> <chr>        <dbl> <chr> <lgl>      
#>  1 Makeu… Concea… <NA>  F0           0.949 #F2F… TRUE       
#>  2 HOURG… Veil F… Porc… No. 0        0.818 #F6D… TRUE       
#>  3 TOM F… Tracel… Pearl 0.0          0.851 #F0D… TRUE       
#>  4 Arman… Neo Nu… <NA>  0            0.912 #F0E… TRUE       
#>  5 TOM F… Tracel… Pearl 0.0          0.912 #FDE… TRUE       
#>  6 Charl… Magic … <NA>  0            0.731 #D9A… TRUE       
#>  7 Bobbi… Skin W… Porc… 0            0.822 #F3C… TRUE       
#>  8 Given… Matiss… <NA>  N00          0.831 #F5D… TRUE       
#>  9 Smash… Studio… <NA>  0.1          0.814 #F8C… TRUE       
#> 10 Smash… Studio… <NA>  0.1          0.910 #F9E… TRUE       
#> # … with 3,107 more rows, and 2 more variables:
#> #   numbers <dbl>, id <dbl>
```
…
We can see that the most popular words appear to be similar between the two categories. At this point, we could use the data in a variety of ways. We might be interested to know which words characterize each group---that is to say, which words are commonly used only in each group. We can do that by first looking at a word's term frequency (tf), which is how many times a word is used in the product name. The issue is that there are a lot of words that are commonly used regardless of context. As such, we may also like to look at the inverse document frequency (idf) in which we 'penalize' words that occur in both groups. For instance, we have seen that 'foundation' occurs in both products with high and low lightness values. And so, its idf would be lower than another word which only occurred in products that did not have a lightness value above half. The term frequency–inverse document frequency (tf-idf) is then the product of these.

We can create this value using `bind_tf_idf()` from `tidytext`. It will create a bunch of new columns, one for each word and star combination.


```r
makeup_by_words_tf_idf <-
  makeup_by_words |>
  bind_tf_idf(term = word, 
              document = lightness_above_half, 
              n = n) |>
  arrange(-tf_idf)

makeup_by_words_tf_idf
#> # A tibble: 505 × 6
#>    lightness_above_half word        n       tf   idf  tf_idf
#>    <chr>                <chr>   <int>    <dbl> <dbl>   <dbl>
#>  1 Yes                  cushion    25 0.00187  0.693 1.30e-3
#>  2 Yes                  combo      16 0.00120  0.693 8.31e-4
#>  3 Yes                  custom     16 0.00120  0.693 8.31e-4
#>  4 Yes                  oily       16 0.00120  0.693 8.31e-4
#>  5 Yes                  perfect    16 0.00120  0.693 8.31e-4
#>  6 Yes                  refill     16 0.00120  0.693 8.31e-4
#>  7 Yes                  50         14 0.00105  0.693 7.27e-4
#>  8 Yes                  compact    13 0.000974 0.693 6.75e-4
#>  9 Yes                  lifting    12 0.000899 0.693 6.23e-4
#> 10 Yes                  satte      12 0.000899 0.693 6.23e-4
#> # … with 495 more rows
```
…
