Chapter 2 Drinking from a fire hose | Telling Stories With Data
…
simulated_data
#> # A tibble: 338 × 2
#>    Riding Party         
#>     <int> <chr>         
#>  1      1 Other         
#>  2      2 Liberal       
#>  3      3 Green         
#>  4      4 Liberal       
#>  5      5 New Democratic
#>  6      6 Green         
#>  7      7 Other         
#>  8      8 New Democratic
#>  9      9 Other         
#> 10     10 Bloc Québécois
#> # … with 328 more rows
…
