Chapter 19 Efficiency | Telling Stories With Data
…
number_of_draws <- 1000000

some_data <- 
  tibble(
    first = runif(n = number_of_draws),
    second = sample(x = LETTERS, size = number_of_draws, replace = TRUE)
  )

tic("CSV")
write_csv(x = some_data,
          file = "some_data.csv")
read_csv(file = "some_data.csv")
#> # A tibble: 1,000,000 × 2
#>     first second
#>     <dbl> <chr> 
#>  1 0.0104 Y     
#>  2 0.899  O     
#>  3 0.246  S     
#>  4 0.609  M     
#>  5 0.268  V     
#>  6 0.718  Z     
#>  7 0.372  H     
#>  8 0.983  S     
#>  9 0.335  S     
#> 10 0.674  J     
#> # … with 999,990 more rows
toc()
#> CSV: 0.386 sec elapsed

tic("parquet")
write_parquet(x = some_data,
              sink = "some_data.parquet")
read_parquet(file = "some_data.parquet")
#> # A tibble: 1,000,000 × 2
#>     first second
#>     <dbl> <chr> 
#>  1 0.0104 Y     
#>  2 0.899  O     
#>  3 0.246  S     
#>  4 0.609  M     
#>  5 0.268  V     
#>  6 0.718  Z     
#>  7 0.372  H     
#>  8 0.983  S     
#>  9 0.335  S     
#> 10 0.674  J     
#> # … with 999,990 more rows
…
