Chapter 13 Exploratory data analysis | Telling Stories With Data
…
13.3 TTC subway delays

This package provides an interface to all data available on the Open Data Portal provided by the City of Toronto.

Use the list_packages function to look at what’s available

all_data <- list_packages(limit = 500)
all_data

## # A tibble: 405 x 11
##    title id    topics civic_issues publisher excerpt dataset_category
##    <chr> <chr> <chr>  <chr>        <chr>     <chr>   <chr>           
##  1 Cata… 473d… City … <NA>         Informat… "Histo… Table           
##  2 Lice… 059d… Commu… <NA>         Children… "Licen… Map             
##  3 Earl… 2619… Commu… Poverty red… Children… "Early… Map             
##  4 Shor… fc41… Permi… Affordable … Municipa… "This … Table           
##  5 Poll… 7bce… City … <NA>         City Cle… "Polls… Table           
##  6 Dail… 8a6e… City … Affordable … Shelter,… "Daily… Table           
##  7 Rain… f293… Locat… Climate cha… Toronto … "This … Document        
##  8 Stre… 99b1… City … <NA>         Transpor… "Infor… Map             
##  9 Auto… a154… Trans… Mobility     Transpor… "This … Map             
## 10 Body… c405… City … <NA>         Toronto … "This … Table           
## # … with 395 more rows, and 4 more variables: num_resources <int>,
## #   formats <chr>, refresh_rate <chr>, last_refreshed <date>
…
13.5.3 Duplicates?

The get_dupes function from the janitor package is useful for this.

get_dupes(delay_2019)

## # A tibble: 158 x 11
##    date                time  day   station code  min_delay min_gap bound line 
##    <dttm>              <chr> <chr> <chr>   <chr>     <dbl>   <dbl> <chr> <chr>
##  1 2019-01-01 00:00:00 08:18 Tues… DONLAN… MUESA         5      10 W     BD   
##  2 2019-01-01 00:00:00 08:18 Tues… DONLAN… MUESA         5      10 W     BD   
##  3 2019-02-01 00:00:00 05:51 Frid… SCARB … MRTO         10      15 S     SRT  
##  4 2019-02-01 00:00:00 05:51 Frid… SCARB … MRTO         10      15 S     SRT  
##  5 2019-02-01 00:00:00 06:45 Frid… MIDLAN… MRWEA         3       8 S     SRT  
##  6 2019-02-01 00:00:00 06:45 Frid… MIDLAN… MRWEA         3       8 S     SRT  
##  7 2019-02-01 00:00:00 06:55 Frid… LAWREN… ERDO          0       0 S     SRT  
##  8 2019-02-01 00:00:00 06:55 Frid… LAWREN… ERDO          0       0 S     SRT  
##  9 2019-02-01 00:00:00 07:16 Frid… MCCOWA… MRWEA         5      10 N     SRT  
## 10 2019-02-01 00:00:00 07:16 Frid… MCCOWA… MRWEA         5      10 N     SRT  
## # … with 148 more rows, and 2 more variables: vehicle <dbl>, dupe_count <int>
…
delay_2019 <- delay_2019 %>%
  mutate(code_srt = ifelse(line=="SRT", code, "NA")) %>% 
  left_join(delay_codes %>% rename(code_srt = `SRT RMENU CODE`, code_desc_srt = `CODE DESCRIPTION...7`) %>% select(code_srt, code_desc_srt))  %>% 
  mutate(code = ifelse(code_srt=="NA", code, code_srt),
         code_desc = ifelse(is.na(code_desc_srt), code_desc, code_desc_srt)) %>% 
  select(-code_srt, -code_desc_srt)

The 455 min delay due to ‘Rail Related Problem’ is an outlier.

delay_2019 %>% 
  left_join(delay_codes %>% rename(code = `SUB RMENU CODE`, code_desc = `CODE DESCRIPTION...3`) %>% select(code, code_desc)) %>% 
  arrange(-min_delay) %>% 
  select(date, time, station, line, min_delay, code, code_desc)

## # A tibble: 18,697 x 7
##    date                time  station     line  min_delay code  code_desc        
##    <dttm>              <chr> <chr>       <chr>     <dbl> <chr> <chr>            
##  1 2019-06-25 00:00:00 18:48 WILSON TO … YU          455 PUTR  Rail Related Pro…
##  2 2019-02-12 00:00:00 20:28 LAWRENCE E… SRT         284 MRWEA Weather Reports …
##  3 2019-06-05 00:00:00 12:42 UNION TO S… YU          250 MUPLA Fire/Smoke Plan A
##  4 2019-10-22 00:00:00 14:22 LAWRENCE S… YU          228 PUTS  Structure Relate…
##  5 2019-09-26 00:00:00 11:38 YORK MILLS… YU          193 MUPR1 Priority One - T…
##  6 2019-06-08 00:00:00 08:51 SPADINA BD… BD          180 MUPLB Fire/Smoke Plan …
##  7 2019-12-02 00:00:00 06:59 DUNDAS WES… BD          176 MUPLB Fire/Smoke Plan …
##  8 2019-01-29 00:00:00 05:46 VICTORIA P… BD          174 MUWEA Weather Reports …
##  9 2019-02-22 00:00:00 17:32 ELLESMERE … SRT         168 PRW   Rail Defect/Fast…
## 10 2019-02-10 00:00:00 07:53 BAYVIEW ST… SHP         165 PUSI  Signals or Relat…
## # … with 18,687 more rows
…
Plot the factor loadings. Some evidence of public v operator?

df_out_r <- as_tibble(delay_pca$rotation)
df_out_r$feature <- colnames(dwide[,3:ncol(dwide)])

df_out_r

## # A tibble: 38 x 39
##         PC1      PC2      PC3      PC4      PC5      PC6      PC7     PC8
##       <dbl>    <dbl>    <dbl>    <dbl>    <dbl>    <dbl>    <dbl>   <dbl>
##  1 -0.0412   0.0638   1.33e-2 -4.67e-2  0.0246   0.0184  -0.00363  0.0198
##  2 -0.0332  -0.00469 -4.14e-2 -7.51e-3  0.0201  -0.0122  -0.0914  -0.0903
##  3 -0.135    0.207    2.37e-2 -1.44e-1  0.135   -0.0381  -0.00931 -0.320 
##  4 -0.0652   0.0475  -4.43e-2 -2.51e-2 -0.00139 -0.0748  -0.144   -0.428 
##  5 -0.00443  0.00878 -4.99e-5 -8.30e-4  0.00967  0.00954 -0.0160  -0.0144
##  6 -0.0268  -0.00722 -4.39e-3  5.34e-4 -0.0151  -0.0125  -0.00381 -0.0423
##  7 -0.0813   0.0960  -4.62e-2  4.79e-2 -0.0978  -0.0365  -0.0766   0.278 
##  8 -0.0117   0.0135   5.48e-3 -2.94e-2  0.0125   0.0377  -0.0790  -0.0321
##  9 -0.516    0.655   -1.77e-2 -1.62e-1 -0.221   -0.287   -0.184    0.0465
## 10 -0.151    0.0826   5.48e-2  3.52e-1 -0.397    0.281    0.110    0.477 
## # … with 28 more rows, and 31 more variables: PC9 <dbl>, PC10 <dbl>,
## #   PC11 <dbl>, PC12 <dbl>, PC13 <dbl>, PC14 <dbl>, PC15 <dbl>, PC16 <dbl>,
## #   PC17 <dbl>, PC18 <dbl>, PC19 <dbl>, PC20 <dbl>, PC21 <dbl>, PC22 <dbl>,
## #   PC23 <dbl>, PC24 <dbl>, PC25 <dbl>, PC26 <dbl>, PC27 <dbl>, PC28 <dbl>,
## #   PC29 <dbl>, PC30 <dbl>, PC31 <dbl>, PC32 <dbl>, PC33 <dbl>, PC34 <dbl>,
## #   PC35 <dbl>, PC36 <dbl>, PC37 <dbl>, PC38 <dbl>, feature <chr>
…
13.7.1.2 Getting the right kind of object

The object casino_resource isn’t quite useable yet, because it’s (inconveniently) stored as a list of 2 data frames:

# Check what kind of object the casino_resource object is
class(casino_resource)

## [1] "list"

If we just return the object, we can see that the 2nd list item is empty, and we just want to keep the first one:

casino_resource

## $tblSurvey
## # A tibble: 17,766 x 94
##    SurveyID Q1_A  Q1_B1 Q1_B2 Q1_B3 Q2_A  Q2_B  Q3_A  Q3_B  Q3_C  Q3_D  Q3_E 
##       <dbl> <chr> <chr> <chr> <chr> <chr> <chr> <chr> <chr> <chr> <chr> <chr>
##  1        1 Stro… Do n… Do n… Do n… Does… "As … Not … Very… Not … Not … Not …
##  2        2 Stro… Econ… Jobs  Arts… Fits… "Cos… Very… Very… Very… Very… Very…
##  3        3 Stro… Ther… If t… <NA>  Fits… "Big… Very… Very… Very… Very… Very…
##  4        4 Some… beli… mone… evid… Does… "My … Very… Very… Some… Some… Very…
##  5        5 Neut… Like… Conc… <NA>  Neut… "Aga… Very… Very… Very… Not … Very…
##  6        6 Stro… have… <NA>  <NA>  Does… "Tor… Not … Not … Not … Not … Not …
##  7        7 Stro… The … Peop… We s… Does… "#3 … Not … Not … Not … Not … Not …
##  8        8 Stro… It w… Mora… <NA>  Does… "Cas… Very… Very… Very… Very… Very…
##  9        9 Stro… It's… traf… heal… Does… "No … Not … Very… Not … Not … Some…
## 10       10 Stro… Toro… Avoi… Prov… Fits… "Tor… Very… Very… Very… Not … Very…
## # … with 17,756 more rows, and 82 more variables: Q3_F <chr>, Q3_G <chr>,
## #   Q3_H <chr>, Q3_I <chr>, Q3_J <chr>, Q3_K <chr>, Q3_L <chr>, Q3_M <chr>,
## #   Q3_N <chr>, Q3_O <chr>, Q3_P <chr>, Q3_Q <chr>, Q3_Q_Other <chr>,
## #   Q3_Comments <chr>, Q4_A <chr>, Q5 <chr>, Q6 <chr>, Q6_Comments <chr>,
## #   Q7_A_StandAlone <chr>, Q7_A_Integrated <chr>, Q7_A1 <chr>, Q7_A2 <chr>,
## #   Q7_A3 <chr>, Q7_A_A <chr>, Q7_A_B <chr>, Q7_A_C <chr>, Q7_A_D <chr>,
## #   Q7_A_E <chr>, Q7_A_F <chr>, Q7_A_G <chr>, Q7_A_H <chr>, Q7_A_I <chr>,
## #   Q7_A_J <chr>, Q7_A_J_Other <chr>, Q7_B_StandAlone <chr>,
## #   Q7_B_Integrated <chr>, Q7_B1 <chr>, Q7_B2 <chr>, Q7_B3 <chr>, Q7_B_A <chr>,
…
