Chapter 10 Farm data | Telling Stories With Data
…
The first census in Canada was conducted in 1666. There were 3,215 inhabitants that were counted, and the census asked about age, sex, marital status, and occupation (Statistics Canada 2017). In association with Confederation, in 1867 a decennial census was required so that political representatives could be allocated for the new Parliament. Regular censuses have occurred since then, the most recent in 2021.

We can explore some data on languages spoken in Canada from the 2016 Census using canlang (T. Timbers 2020). This package is not yet available on CRAN, and so we install it from GitHub, using devtools (Wickham, Hester, and Chang 2020).

install.packages("devtools")
devtools::install_github("ttimbers/canlang")

We will start with the ‘can_lang’ dataset, which provides the number of Canadians who use that language for 214 languages.

library(tidyverse)
library(canlang)

can_lang
#> # A tibble: 214 × 6
#>    category language mother_tongue most_at_home most_at_work
#>    <chr>    <chr>            <dbl>        <dbl>        <dbl>
#>  1 Aborigi… Aborigi…           590          235           30
#>  2 Non-Off… Afrikaa…         10260         4785           85
#>  3 Non-Off… Afro-As…          1150          445           10
#>  4 Non-Off… Akan (T…         13460         5985           25
#>  5 Non-Off… Albanian         26895        13135          345
#>  6 Aborigi… Algonqu…            45           10            0
#>  7 Aborigi… Algonqu…          1260          370           40
#>  8 Non-Off… America…          2685         3020         1145
#>  9 Non-Off… Amharic          22465        12785          200
#> 10 Non-Off… Arabic          419890       223535         5585
#> # … with 204 more rows, and 1 more variable:
#> #   lang_known <dbl>
…
