Chapter 8 Gather data | Telling Stories With Data
…
8.6.4 Explore

Finally, just because we have the data now, so we may as well try to do something with it, let’s look at the distribution of the first letter of the author names.

all_books %>% 
  mutate(
    first_letter = str_sub(author, 1, 1)
    ) %>% 
  group_by(first_letter) %>% 
  count()

## # A tibble: 21 × 2
## # Groups:   first_letter [21]
##    first_letter     n
##    <chr>        <int>
##  1 ""               1
##  2 "A"              8
##  3 "B"              5
##  4 "C"              4
##  5 "D"             10
##  6 "E"              3
##  7 "F"              1
##  8 "G"             10
##  9 "H"              6
## 10 "I"              1
## # … with 11 more rows
…
This is all looking fairly great. The only thing left is to clean up.

dhs_2000 <- 
  dhs_2000 %>% 
  select(state, TFR) %>% 
  slice(13:69) %>% 
  mutate(year = 2000)

dhs_2000

## # A tibble: 57 × 3
##    state                                                            TFR     year
##    <chr>                                                            <chr>  <dbl>
##  1 "                                  State                       … <NA>    2000
##  2 "                                                              … <NA>    2000
##  3 "                                                              … <NA>    2000
##  4 ""                                                               <NA>    2000
##  5 ""                                                               <NA>    2000
##  6 "United States 1 "                                               2,130…  2000
##  7 ""                                                               <NA>    2000
##  8 "Alabama "                                                       2,021…  2000
##  9 "Alaska "                                                        2,437…  2000
## 10 "Arizona "                                                       2,652…  2000
## # … with 47 more rows
…
