Chapter 10 Hunt data | Telling Stories With Data
…
population
#> # A tibble: 5,000 × 3
#>    person favorite_color prefers_dogs_to_cats
#>     <int> <chr>          <chr>               
#>  1      1 Blue           Yes                 
#>  2      2 White          No                  
#>  3      3 White          No                  
#>  4      4 Blue           Yes                 
#>  5      5 Blue           Yes                 
#>  6      6 Blue           Yes                 
#>  7      7 Blue           Yes                 
#>  8      8 Blue           Yes                 
#>  9      9 White          No                  
#> 10     10 White          No                  
#> # … with 4,990 more rows
…
