Chapter 3 R Essentials | Telling Stories With Data
…
For the sake of completeness, if you combine select() with pull() then you will get the same class of output as if you use the dollar sign.

australian_politicians %>% 
  select(firstName) %>% 
  pull() %>% 
  head()
#> [1] "Richard"   "Percy"     "Macartney" "Charles"  
#> [5] "Joseph"    "Anthony"

You can also use select to get rid of columns, by selecting in a negative sense.

australian_politicians %>% 
  select(-firstName)
#> # A tibble: 1,776 × 19
#>    uniqueID   surname allOtherNames   commonName displayName
#>    <chr>      <chr>   <chr>           <chr>      <chr>      
#>  1 Abbott1859 Abbott  Richard Hartle… <NA>       Abbott, Ri…
#>  2 Abbott1869 Abbott  Percy Phipps    <NA>       Abbott, Pe…
#>  3 Abbott1877 Abbott  Macartney       Mac        Abbott, Mac
#>  4 Abbott1886 Abbott  Charles Lydiar… Aubrey     Abbott, Au…
#>  5 Abbott1891 Abbott  Joseph Palmer   <NA>       Abbott, Jo…
#>  6 Abbott1957 Abbott  Anthony John    Tony       Abbott, To…
#>  7 Abel1939   Abel    John Arthur     <NA>       Abel, John 
#>  8 Abetz1958  Abetz   Eric            <NA>       Abetz, Eric
#>  9 Adams1943  Adams   Judith Anne     <NA>       Adams, Jud…
#> 10 Adams1951  Adams   Dick Godfrey H… <NA>       Adams, Dick
#> # … with 1,766 more rows, and 14 more variables:
#> #   earlierOrLaterNames <chr>, title <chr>, gender <chr>,
#> #   birthDate <date>, birthYear <dbl>, birthPlace <chr>,
#> #   deathDate <date>, member <dbl>, senator <dbl>,
#> #   wasPrimeMinister <dbl>, wikidataID <chr>,
#> #   wikipedia <chr>, adb <chr>, comments <chr>

Finally, you can select, based on conditions. For instance, selecting all of the columns that start with something, for instance, ‘birth.’

australian_politicians %>% 
  select(starts_with("birth"))
#> # A tibble: 1,776 × 3
#>    birthDate  birthYear birthPlace  
#>    <date>         <dbl> <chr>       
#>  1 NA              1859 Bendigo     
#>  2 1869-05-14      1869 Hobart      
#>  3 1877-07-03      1877 Murrurundi  
#>  4 1886-01-04      1886 St Leonards 
#>  5 1891-10-18      1891 North Sydney
#>  6 1957-11-04      1957 London      
#>  7 1939-06-25      1939 Sydney      
#>  8 1958-01-25      1958 Stuttgart   
#>  9 1943-04-11      1943 Picton      
#> 10 1951-04-29      1951 Launceston  
#> # … with 1,766 more rows

3.4.3 Filtering

The filter() function is used to get particular rows from a dataset. For instance, we might like to filter to only politicians that became prime minister.

australian_politicians %>% 
  filter(wasPrimeMinister == 1) 
#> # A tibble: 30 × 20
#>    uniqueID    surname allOtherNames    firstName commonName
#>    <chr>       <chr>   <chr>            <chr>     <chr>     
#>  1 Abbott1957  Abbott  Anthony John     Anthony   Tony      
#>  2 Barton1849  Barton  Edmund           Edmund    <NA>      
#>  3 Bruce1883   Bruce   Stanley Melbour… Stanley   <NA>      
#>  4 Chifley1885 Chifley Joseph Benedict  Joseph    Ben       
#>  5 Cook1860    Cook    Joseph           Joseph    <NA>      
#>  6 Curtin1885  Curtin  John Joseph Amb… John      <NA>      
#>  7 Deakin1856  Deakin  Alfred           Alfred    <NA>      
#>  8 Fadden1894  Fadden  Arthur William   Arthur    Arthur    
#>  9 Fisher1862  Fisher  Andrew           Andrew    <NA>      
#> 10 Forde1890   Forde   Francis Michael  Francis   Frank     
#> # … with 20 more rows, and 15 more variables:
#> #   displayName <chr>, earlierOrLaterNames <chr>,
#> #   title <chr>, gender <chr>, birthDate <date>,
#> #   birthYear <dbl>, birthPlace <chr>, deathDate <date>,
#> #   member <dbl>, senator <dbl>, wasPrimeMinister <dbl>,
#> #   wikidataID <chr>, wikipedia <chr>, adb <chr>,
#> #   comments <chr>
…
3.4.4 Arranging

We can change the order of the dataset based on the values in a particular column using the arrange() function. For instance, we may like to arrange the data by year of birth.

australian_politicians %>% 
  arrange(surname)
#> # A tibble: 1,776 × 20
#>    uniqueID   surname allOtherNames     firstName commonName
#>    <chr>      <chr>   <chr>             <chr>     <chr>     
#>  1 Abbott1859 Abbott  Richard Hartley … Richard   <NA>      
#>  2 Abbott1869 Abbott  Percy Phipps      Percy     <NA>      
#>  3 Abbott1877 Abbott  Macartney         Macartney Mac       
#>  4 Abbott1886 Abbott  Charles Lydiard … Charles   Aubrey    
#>  5 Abbott1891 Abbott  Joseph Palmer     Joseph    <NA>      
#>  6 Abbott1957 Abbott  Anthony John      Anthony   Tony      
#>  7 Abel1939   Abel    John Arthur       John      <NA>      
#>  8 Abetz1958  Abetz   Eric              Eric      <NA>      
#>  9 Adams1943  Adams   Judith Anne       Judith    <NA>      
#> 10 Adams1951  Adams   Dick Godfrey Har… Dick      <NA>      
#> # … with 1,766 more rows, and 15 more variables:
#> #   displayName <chr>, earlierOrLaterNames <chr>,
#> #   title <chr>, gender <chr>, birthDate <date>,
#> #   birthYear <dbl>, birthPlace <chr>, deathDate <date>,
#> #   member <dbl>, senator <dbl>, wasPrimeMinister <dbl>,
#> #   wikidataID <chr>, wikipedia <chr>, adb <chr>,
#> #   comments <chr>

We can also use the desc() function to arrange in descending order.

australian_politicians %>% 
  arrange(desc(surname))
#> # A tibble: 1,776 × 20
#>    uniqueID      surname   allOtherNames firstName commonName
#>    <chr>         <chr>     <chr>         <chr>     <chr>     
#>  1 Zimmerman1968 Zimmerman Trent Moir    Trent     <NA>      
#>  2 Zeal1830      Zeal      William Aust… William   <NA>      
#>  3 Zappia1952    Zappia    Antonio       Antonio   Tony      
#>  4 Zammit1941    Zammit    Paul John     Paul      <NA>      
#>  5 Zakharov1929  Zakharov  Alice Olive   Alice     Olive     
#>  6 Zahra1973     Zahra     Christian Jo… Christian <NA>      
#>  7 Young1923     Young     Harold Willi… Harold    <NA>      
#>  8 Young1936     Young     Michael Jero… Michael   Mick      
#>  9 Young1968     Young     Terry James   Terry     <NA>      
#> 10 Yates1871     Yates     George Edwin  George    Gunner    
#> # … with 1,766 more rows, and 15 more variables:
#> #   displayName <chr>, earlierOrLaterNames <chr>,
#> #   title <chr>, gender <chr>, birthDate <date>,
#> #   birthYear <dbl>, birthPlace <chr>, deathDate <date>,
#> #   member <dbl>, senator <dbl>, wasPrimeMinister <dbl>,
#> #   wikidataID <chr>, wikipedia <chr>, adb <chr>,
#> #   comments <chr>

We can also arrange based on more than one column.

australian_politicians %>% 
  arrange(firstName, surname)
#> # A tibble: 1,776 × 20
#>    uniqueID      surname   allOtherNames firstName commonName
#>    <chr>         <chr>     <chr>         <chr>     <chr>     
#>  1 Blain1894     Blain     Adair Macali… Adair     <NA>      
#>  2 Armstrong1909 Armstrong Adam Alexand… Adam      Bill      
#>  3 Bandt1972     Bandt     Adam Paul     Adam      <NA>      
#>  4 Dein1889      Dein      Adam Kemball  Adam      Dick      
#>  5 Ridgeway1962  Ridgeway  Aden Derek    Aden      <NA>      
#>  6 Bennett1933   Bennett   Adrian Frank  Adrian    <NA>      
#>  7 Gibson1935    Gibson    Adrian        Adrian    <NA>      
#>  8 Wynne1850     Wynne     Agar          Agar      <NA>      
#>  9 Robertson1882 Robertson Agnes Robert… Agnes     <NA>      
#> 10 Bird1906      Bird      Alan Charles  Alan      <NA>      
#> # … with 1,766 more rows, and 15 more variables:
#> #   displayName <chr>, earlierOrLaterNames <chr>,
#> #   title <chr>, gender <chr>, birthDate <date>,
#> #   birthYear <dbl>, birthPlace <chr>, deathDate <date>,
#> #   member <dbl>, senator <dbl>, wasPrimeMinister <dbl>,
#> #   wikidataID <chr>, wikipedia <chr>, adb <chr>,
#> #   comments <chr>

We can pipe arrange() to another arrange().

australian_politicians %>% 
  arrange(firstName) %>% 
  arrange(surname)
#> # A tibble: 1,776 × 20
#>    uniqueID   surname allOtherNames     firstName commonName
#>    <chr>      <chr>   <chr>             <chr>     <chr>     
#>  1 Abbott1957 Abbott  Anthony John      Anthony   Tony      
#>  2 Abbott1886 Abbott  Charles Lydiard … Charles   Aubrey    
#>  3 Abbott1891 Abbott  Joseph Palmer     Joseph    <NA>      
#>  4 Abbott1877 Abbott  Macartney         Macartney Mac       
#>  5 Abbott1869 Abbott  Percy Phipps      Percy     <NA>      
#>  6 Abbott1859 Abbott  Richard Hartley … Richard   <NA>      
#>  7 Abel1939   Abel    John Arthur       John      <NA>      
#>  8 Abetz1958  Abetz   Eric              Eric      <NA>      
#>  9 Adams1951  Adams   Dick Godfrey Har… Dick      <NA>      
#> 10 Adams1943  Adams   Judith Anne       Judith    <NA>      
#> # … with 1,766 more rows, and 15 more variables:
#> #   displayName <chr>, earlierOrLaterNames <chr>,
#> #   title <chr>, gender <chr>, birthDate <date>,
#> #   birthYear <dbl>, birthPlace <chr>, deathDate <date>,
#> #   member <dbl>, senator <dbl>, wasPrimeMinister <dbl>,
#> #   wikidataID <chr>, wikipedia <chr>, adb <chr>,
#> #   comments <chr>

It is just important to be clear about the precedence of each.

australian_politicians %>% 
  arrange(surname, firstName)
#> # A tibble: 1,776 × 20
#>    uniqueID   surname allOtherNames     firstName commonName
#>    <chr>      <chr>   <chr>             <chr>     <chr>     
#>  1 Abbott1957 Abbott  Anthony John      Anthony   Tony      
#>  2 Abbott1886 Abbott  Charles Lydiard … Charles   Aubrey    
#>  3 Abbott1891 Abbott  Joseph Palmer     Joseph    <NA>      
#>  4 Abbott1877 Abbott  Macartney         Macartney Mac       
#>  5 Abbott1869 Abbott  Percy Phipps      Percy     <NA>      
#>  6 Abbott1859 Abbott  Richard Hartley … Richard   <NA>      
#>  7 Abel1939   Abel    John Arthur       John      <NA>      
#>  8 Abetz1958  Abetz   Eric              Eric      <NA>      
#>  9 Adams1951  Adams   Dick Godfrey Har… Dick      <NA>      
#> 10 Adams1943  Adams   Judith Anne       Judith    <NA>      
#> # … with 1,766 more rows, and 15 more variables:
#> #   displayName <chr>, earlierOrLaterNames <chr>,
#> #   title <chr>, gender <chr>, birthDate <date>,
#> #   birthYear <dbl>, birthPlace <chr>, deathDate <date>,
#> #   member <dbl>, senator <dbl>, wasPrimeMinister <dbl>,
#> #   wikidataID <chr>, wikipedia <chr>, adb <chr>,
#> #   comments <chr>
…
