Chapter 3 R Essentials | Telling Stories With Data
…
For the sake of completeness, if you combine select() with pull() then you will get the same class of output as if you use the dollar sign.

australian_politicians %>% 
  select(firstName) %>% 
  pull() %>% 
  head()

## [1] "Richard"   "Percy"     "Macartney" "Charles"   "Joseph"    "Anthony"

You can also use select to get rid of columns, by selecting in a negative sense.

australian_politicians %>% 
  select(-firstName)

## # A tibble: 1,776 x 19
##    uniqueID surname allOtherNames commonName displayName earlierOrLaterN… title
##    <chr>    <chr>   <chr>         <chr>      <chr>       <chr>            <chr>
##  1 Abbott1… Abbott  Richard Hart… <NA>       Abbott, Ri… <NA>             <NA> 
##  2 Abbott1… Abbott  Percy Phipps  <NA>       Abbott, Pe… <NA>             <NA> 
##  3 Abbott1… Abbott  Macartney     Mac        Abbott, Mac <NA>             <NA> 
##  4 Abbott1… Abbott  Charles Lydi… Aubrey     Abbott, Au… <NA>             <NA> 
##  5 Abbott1… Abbott  Joseph Palmer <NA>       Abbott, Jo… <NA>             <NA> 
##  6 Abbott1… Abbott  Anthony John  Tony       Abbott, To… <NA>             <NA> 
##  7 Abel1939 Abel    John Arthur   <NA>       Abel, John  <NA>             <NA> 
##  8 Abetz19… Abetz   Eric          <NA>       Abetz, Eric <NA>             <NA> 
##  9 Adams19… Adams   Judith Anne   <NA>       Adams, Jud… nee Bird         <NA> 
## 10 Adams19… Adams   Dick Godfrey… <NA>       Adams, Dick <NA>             <NA> 
## # … with 1,766 more rows, and 12 more variables: gender <chr>,
## #   birthDate <date>, birthYear <dbl>, birthPlace <chr>, deathDate <date>,
## #   member <dbl>, senator <dbl>, wasPrimeMinister <dbl>, wikidataID <chr>,
## #   wikipedia <chr>, adb <chr>, comments <chr>

Finally, you can select, based on conditions. For instance, selecting all all of the columns that start with something, for instance, ‘birth.’

australian_politicians %>% 
  select(starts_with("birth"))

## # A tibble: 1,776 x 3
##    birthDate  birthYear birthPlace  
##    <date>         <dbl> <chr>       
##  1 NA              1859 Bendigo     
##  2 1869-05-14      1869 Hobart      
##  3 1877-07-03      1877 Murrurundi  
##  4 1886-01-04      1886 St Leonards 
##  5 1891-10-18      1891 North Sydney
##  6 1957-11-04      1957 London      
##  7 1939-06-25      1939 Sydney      
##  8 1958-01-25      1958 Stuttgart   
##  9 1943-04-11      1943 Picton      
## 10 1951-04-29      1951 Launceston  
## # … with 1,766 more rows

3.4.3 Filtering

The filter() function is used to get particular rows from a dataset. For instance, we might like to filter to only politicians that became prime minister.

australian_politicians %>% 
  filter(wasPrimeMinister == 1) 

## # A tibble: 30 x 20
##    uniqueID surname allOtherNames firstName commonName displayName
##    <chr>    <chr>   <chr>         <chr>     <chr>      <chr>      
##  1 Abbott1… Abbott  Anthony John  Anthony   Tony       Abbott, To…
##  2 Barton1… Barton  Edmund        Edmund    <NA>       Barton, Ed…
##  3 Bruce18… Bruce   Stanley Melb… Stanley   <NA>       Bruce, Sta…
##  4 Chifley… Chifley Joseph Bened… Joseph    Ben        Chifley, B…
##  5 Cook1860 Cook    Joseph        Joseph    <NA>       Cook, Jose…
##  6 Curtin1… Curtin  John Joseph … John      <NA>       Curtin, Jo…
##  7 Deakin1… Deakin  Alfred        Alfred    <NA>       Deakin, Al…
##  8 Fadden1… Fadden  Arthur Willi… Arthur    Arthur     Fadden, Ar…
##  9 Fisher1… Fisher  Andrew        Andrew    <NA>       Fisher, An…
## 10 Forde18… Forde   Francis Mich… Francis   Frank      Forde, Fra…
## # … with 20 more rows, and 14 more variables: earlierOrLaterNames <chr>,
## #   title <chr>, gender <chr>, birthDate <date>, birthYear <dbl>,
## #   birthPlace <chr>, deathDate <date>, member <dbl>, senator <dbl>,
## #   wasPrimeMinister <dbl>, wikidataID <chr>, wikipedia <chr>, adb <chr>,
## #   comments <chr>
…
3.4.4 Arranging

We can change the order of the dataset based on the values in a particular column using the arrange() function. For instance, we may like to arrange the data by year of birth.

australian_politicians %>% 
  arrange(surname)

## # A tibble: 1,776 x 20
##    uniqueID surname allOtherNames firstName commonName displayName
##    <chr>    <chr>   <chr>         <chr>     <chr>      <chr>      
##  1 Abbott1… Abbott  Richard Hart… Richard   <NA>       Abbott, Ri…
##  2 Abbott1… Abbott  Percy Phipps  Percy     <NA>       Abbott, Pe…
##  3 Abbott1… Abbott  Macartney     Macartney Mac        Abbott, Mac
##  4 Abbott1… Abbott  Charles Lydi… Charles   Aubrey     Abbott, Au…
##  5 Abbott1… Abbott  Joseph Palmer Joseph    <NA>       Abbott, Jo…
##  6 Abbott1… Abbott  Anthony John  Anthony   Tony       Abbott, To…
##  7 Abel1939 Abel    John Arthur   John      <NA>       Abel, John 
##  8 Abetz19… Abetz   Eric          Eric      <NA>       Abetz, Eric
##  9 Adams19… Adams   Judith Anne   Judith    <NA>       Adams, Jud…
## 10 Adams19… Adams   Dick Godfrey… Dick      <NA>       Adams, Dick
## # … with 1,766 more rows, and 14 more variables: earlierOrLaterNames <chr>,
## #   title <chr>, gender <chr>, birthDate <date>, birthYear <dbl>,
## #   birthPlace <chr>, deathDate <date>, member <dbl>, senator <dbl>,
## #   wasPrimeMinister <dbl>, wikidataID <chr>, wikipedia <chr>, adb <chr>,
## #   comments <chr>

We can also use the desc() function to arrange in descending order.

australian_politicians %>% 
  arrange(desc(surname))

## # A tibble: 1,776 x 20
##    uniqueID surname allOtherNames firstName commonName displayName
##    <chr>    <chr>   <chr>         <chr>     <chr>      <chr>      
##  1 Zimmerm… Zimmer… Trent Moir    Trent     <NA>       Zimmerman,…
##  2 Zeal1830 Zeal    William Aust… William   <NA>       Zeal, Will…
##  3 Zappia1… Zappia  Antonio       Antonio   Tony       Zappia, To…
##  4 Zammit1… Zammit  Paul John     Paul      <NA>       Zammit, Pa…
##  5 Zakharo… Zakhar… Alice Olive   Alice     Olive      Zakharov, …
##  6 Zahra19… Zahra   Christian Jo… Christian <NA>       Zahra, Chr…
##  7 Young19… Young   Harold Willi… Harold    <NA>       Young, Har…
##  8 Young19… Young   Michael Jero… Michael   Mick       Young, Mick
##  9 Young19… Young   Terry James   Terry     <NA>       Young, Ter…
## 10 Yates18… Yates   George Edwin  George    Gunner     Yates, Gun…
## # … with 1,766 more rows, and 14 more variables: earlierOrLaterNames <chr>,
## #   title <chr>, gender <chr>, birthDate <date>, birthYear <dbl>,
## #   birthPlace <chr>, deathDate <date>, member <dbl>, senator <dbl>,
## #   wasPrimeMinister <dbl>, wikidataID <chr>, wikipedia <chr>, adb <chr>,
## #   comments <chr>

We can also arrange based on more than one column.

australian_politicians %>% 
  arrange(firstName, surname)

## # A tibble: 1,776 x 20
##    uniqueID surname allOtherNames firstName commonName displayName
##    <chr>    <chr>   <chr>         <chr>     <chr>      <chr>      
##  1 Blain18… Blain   Adair Macali… Adair     <NA>       Blain, Ada…
##  2 Armstro… Armstr… Adam Alexand… Adam      Bill       Armstrong,…
##  3 Bandt19… Bandt   Adam Paul     Adam      <NA>       Bandt, Adam
##  4 Dein1889 Dein    Adam Kemball  Adam      Dick       Dein, Dick 
##  5 Ridgewa… Ridgew… Aden Derek    Aden      <NA>       Ridgeway, …
##  6 Bennett… Bennett Adrian Frank  Adrian    <NA>       Bennett, A…
##  7 Gibson1… Gibson  Adrian        Adrian    <NA>       Gibson, Ad…
##  8 Wynne18… Wynne   Agar          Agar      <NA>       Wynne, Agar
##  9 Roberts… Robert… Agnes Robert… Agnes     <NA>       Robertson,…
## 10 Bird1906 Bird    Alan Charles  Alan      <NA>       Bird, Alan 
## # … with 1,766 more rows, and 14 more variables: earlierOrLaterNames <chr>,
## #   title <chr>, gender <chr>, birthDate <date>, birthYear <dbl>,
## #   birthPlace <chr>, deathDate <date>, member <dbl>, senator <dbl>,
## #   wasPrimeMinister <dbl>, wikidataID <chr>, wikipedia <chr>, adb <chr>,
## #   comments <chr>

We can pipe arrange() to another arrange().

australian_politicians %>% 
  arrange(firstName) %>% 
  arrange(surname)

## # A tibble: 1,776 x 20
##    uniqueID surname allOtherNames firstName commonName displayName
##    <chr>    <chr>   <chr>         <chr>     <chr>      <chr>      
##  1 Abbott1… Abbott  Anthony John  Anthony   Tony       Abbott, To…
##  2 Abbott1… Abbott  Charles Lydi… Charles   Aubrey     Abbott, Au…
##  3 Abbott1… Abbott  Joseph Palmer Joseph    <NA>       Abbott, Jo…
##  4 Abbott1… Abbott  Macartney     Macartney Mac        Abbott, Mac
##  5 Abbott1… Abbott  Percy Phipps  Percy     <NA>       Abbott, Pe…
##  6 Abbott1… Abbott  Richard Hart… Richard   <NA>       Abbott, Ri…
##  7 Abel1939 Abel    John Arthur   John      <NA>       Abel, John 
##  8 Abetz19… Abetz   Eric          Eric      <NA>       Abetz, Eric
##  9 Adams19… Adams   Dick Godfrey… Dick      <NA>       Adams, Dick
## 10 Adams19… Adams   Judith Anne   Judith    <NA>       Adams, Jud…
## # … with 1,766 more rows, and 14 more variables: earlierOrLaterNames <chr>,
## #   title <chr>, gender <chr>, birthDate <date>, birthYear <dbl>,
## #   birthPlace <chr>, deathDate <date>, member <dbl>, senator <dbl>,
## #   wasPrimeMinister <dbl>, wikidataID <chr>, wikipedia <chr>, adb <chr>,
## #   comments <chr>

It is just important to be clear about the precedence of each.

australian_politicians %>% 
  arrange(surname, firstName)

## # A tibble: 1,776 x 20
##    uniqueID surname allOtherNames firstName commonName displayName
##    <chr>    <chr>   <chr>         <chr>     <chr>      <chr>      
##  1 Abbott1… Abbott  Anthony John  Anthony   Tony       Abbott, To…
##  2 Abbott1… Abbott  Charles Lydi… Charles   Aubrey     Abbott, Au…
##  3 Abbott1… Abbott  Joseph Palmer Joseph    <NA>       Abbott, Jo…
##  4 Abbott1… Abbott  Macartney     Macartney Mac        Abbott, Mac
##  5 Abbott1… Abbott  Percy Phipps  Percy     <NA>       Abbott, Pe…
##  6 Abbott1… Abbott  Richard Hart… Richard   <NA>       Abbott, Ri…
##  7 Abel1939 Abel    John Arthur   John      <NA>       Abel, John 
##  8 Abetz19… Abetz   Eric          Eric      <NA>       Abetz, Eric
##  9 Adams19… Adams   Dick Godfrey… Dick      <NA>       Adams, Dick
## 10 Adams19… Adams   Judith Anne   Judith    <NA>       Adams, Jud…
## # … with 1,766 more rows, and 14 more variables: earlierOrLaterNames <chr>,
## #   title <chr>, gender <chr>, birthDate <date>, birthYear <dbl>,
## #   birthPlace <chr>, deathDate <date>, member <dbl>, senator <dbl>,
## #   wasPrimeMinister <dbl>, wikidataID <chr>, wikipedia <chr>, adb <chr>,
## #   comments <chr>
…
